<?xml version="1.0"?>
<gpx creator="map2gpx.fr" version="1.0" xmlns="http://www.topografix.com/GPX/1/1" xmlns:xsi="http://www.w3.org/2001/XMLSchema-instance" xsi:schemaLocation="http://www.topografix.com/GPX/1/1 http://www.topografix.com/GPX/1/1/gpx.xsd">
    <trk>
        <name>Charmant Som</name>
        <trkseg>
            <trkpt lat="45.319089" lon="5.756503"><ele>1667.71</ele></trkpt>
            <trkpt lat="45.319088" lon="5.756496"><ele>1667.71</ele></trkpt>
            <trkpt lat="45.319277" lon="5.756397"><ele>1667.33</ele></trkpt>
            <trkpt lat="45.319277" lon="5.756397"><ele>1667.33</ele></trkpt>
            <trkpt lat="45.319317" lon="5.756335"><ele>1666.9</ele></trkpt>
            <trkpt lat="45.31935" lon="5.756252"><ele>1666.18</ele></trkpt>
            <trkpt lat="45.319399" lon="5.756122"><ele>1665.46</ele></trkpt>
            <trkpt lat="45.31945" lon="5.755989"><ele>1665.23</ele></trkpt>
            <trkpt lat="45.319516" lon="5.755911"><ele>1664.18</ele></trkpt>
            <trkpt lat="45.319634" lon="5.755846"><ele>1662.17</ele></trkpt>
            <trkpt lat="45.319694" lon="5.755867"><ele>1660.82</ele></trkpt>
            <trkpt lat="45.319728" lon="5.755894"><ele>1659.57</ele></trkpt>
            <trkpt lat="45.319761" lon="5.755944"><ele>1659.37</ele></trkpt>
            <trkpt lat="45.319789" lon="5.756074"><ele>1658.15</ele></trkpt>
            <trkpt lat="45.319819" lon="5.756194"><ele>1657.63</ele></trkpt>
            <trkpt lat="45.319857" lon="5.756259"><ele>1657.11</ele></trkpt>
            <trkpt lat="45.319943" lon="5.756344"><ele>1656.64</ele></trkpt>
            <trkpt lat="45.320006" lon="5.756351"><ele>1656.16</ele></trkpt>
            <trkpt lat="45.320051" lon="5.756319"><ele>1655.08</ele></trkpt>
            <trkpt lat="45.320095" lon="5.756267"><ele>1653.9</ele></trkpt>
            <trkpt lat="45.320095" lon="5.75625"><ele>1653.9</ele></trkpt>
            <trkpt lat="45.320079" lon="5.756166"><ele>1652.45</ele></trkpt>
            <trkpt lat="45.320071" lon="5.756082"><ele>1651</ele></trkpt>
            <trkpt lat="45.320072" lon="5.756015"><ele>1649.43</ele></trkpt>
            <trkpt lat="45.320066" lon="5.755915"><ele>1647.71</ele></trkpt>
            <trkpt lat="45.320087" lon="5.755863"><ele>1646.82</ele></trkpt>
            <trkpt lat="45.320086" lon="5.755802"><ele>1645.15</ele></trkpt>
            <trkpt lat="45.320065" lon="5.755698"><ele>1643.78</ele></trkpt>
            <trkpt lat="45.320066" lon="5.755596"><ele>1642.83</ele></trkpt>
            <trkpt lat="45.320065" lon="5.75551"><ele>1642.25</ele></trkpt>
            <trkpt lat="45.320091" lon="5.755464"><ele>1642.04</ele></trkpt>
            <trkpt lat="45.32012" lon="5.755449"><ele>1638.61</ele></trkpt>
            <trkpt lat="45.320123" lon="5.755477"><ele>1638.86</ele></trkpt>
            <trkpt lat="45.320116" lon="5.755529"><ele>1639.14</ele></trkpt>
            <trkpt lat="45.320121" lon="5.755616"><ele>1639.89</ele></trkpt>
            <trkpt lat="45.320133" lon="5.755655"><ele>1640.4</ele></trkpt>
            <trkpt lat="45.320154" lon="5.755731"><ele>1639.1</ele></trkpt>
            <trkpt lat="45.320192" lon="5.755834"><ele>1638.82</ele></trkpt>
            <trkpt lat="45.320223" lon="5.755946"><ele>1643.61</ele></trkpt>
            <trkpt lat="45.320269" lon="5.755972"><ele>1642.15</ele></trkpt>
            <trkpt lat="45.320309" lon="5.755977"><ele>1640.88</ele></trkpt>
            <trkpt lat="45.320361" lon="5.755963"><ele>1639.81</ele></trkpt>
            <trkpt lat="45.320481" lon="5.755928"><ele>1635.67</ele></trkpt>
            <trkpt lat="45.320558" lon="5.755894"><ele>1636.04</ele></trkpt>
            <trkpt lat="45.320657" lon="5.755885"><ele>1634.37</ele></trkpt>
            <trkpt lat="45.320732" lon="5.755853"><ele>1636.81</ele></trkpt>
            <trkpt lat="45.32078" lon="5.755831"><ele>1635.3</ele></trkpt>
            <trkpt lat="45.320791" lon="5.755809"><ele>1635.3</ele></trkpt>
            <trkpt lat="45.320815" lon="5.755787"><ele>1633.97</ele></trkpt>
            <trkpt lat="45.32085" lon="5.755762"><ele>1632.73</ele></trkpt>
            <trkpt lat="45.320891" lon="5.755704"><ele>1631.49</ele></trkpt>
            <trkpt lat="45.320931" lon="5.75567"><ele>1630.22</ele></trkpt>
            <trkpt lat="45.320922" lon="5.75565"><ele>1630.22</ele></trkpt>
            <trkpt lat="45.320922" lon="5.75565"><ele>1630.22</ele></trkpt>
            <trkpt lat="45.320931" lon="5.75567"><ele>1630.22</ele></trkpt>
            <trkpt lat="45.320972" lon="5.755634"><ele>1632.26</ele></trkpt>
            <trkpt lat="45.321029" lon="5.755606"><ele>1630.93</ele></trkpt>
            <trkpt lat="45.321132" lon="5.755614"><ele>1634.86</ele></trkpt>
            <trkpt lat="45.32122" lon="5.755603"><ele>1638.75</ele></trkpt>
            <trkpt lat="45.321369" lon="5.755564"><ele>1643.5</ele></trkpt>
            <trkpt lat="45.321445" lon="5.755525"><ele>1644.76</ele></trkpt>
            <trkpt lat="45.321492" lon="5.755533"><ele>1647.02</ele></trkpt>
            <trkpt lat="45.321548" lon="5.755484"><ele>1646.44</ele></trkpt>
            <trkpt lat="45.321587" lon="5.755469"><ele>1648.78</ele></trkpt>
            <trkpt lat="45.321614" lon="5.755446"><ele>1648.39</ele></trkpt>
            <trkpt lat="45.321666" lon="5.755408"><ele>1648.04</ele></trkpt>
            <trkpt lat="45.32171" lon="5.75539"><ele>1650.33</ele></trkpt>
            <trkpt lat="45.321741" lon="5.755364"><ele>1649.96</ele></trkpt>
            <trkpt lat="45.321855" lon="5.755329"><ele>1651.6</ele></trkpt>
            <trkpt lat="45.321941" lon="5.755277"><ele>1652.86</ele></trkpt>
            <trkpt lat="45.322031" lon="5.755201"><ele>1651.15</ele></trkpt>
            <trkpt lat="45.322094" lon="5.755177"><ele>1652.95</ele></trkpt>
            <trkpt lat="45.322214" lon="5.755192"><ele>1653.31</ele></trkpt>
            <trkpt lat="45.322347" lon="5.755237"><ele>1654.38</ele></trkpt>
            <trkpt lat="45.322436" lon="5.755328"><ele>1658.33</ele></trkpt>
            <trkpt lat="45.322517" lon="5.755376"><ele>1659.77</ele></trkpt>
            <trkpt lat="45.322576" lon="5.755431"><ele>1664.29</ele></trkpt>
            <trkpt lat="45.322685" lon="5.755482"><ele>1664.94</ele></trkpt>
            <trkpt lat="45.322781" lon="5.755518"><ele>1666.02</ele></trkpt>
            <trkpt lat="45.322857" lon="5.755579"><ele>1666.95</ele></trkpt>
            <trkpt lat="45.322968" lon="5.755628"><ele>1667.78</ele></trkpt>
            <trkpt lat="45.323212" lon="5.755742"><ele>1670.01</ele></trkpt>
            <trkpt lat="45.323381" lon="5.755841"><ele>1671.11</ele></trkpt>
            <trkpt lat="45.323381" lon="5.755841"><ele>1671.11</ele></trkpt>
            <trkpt lat="45.323716" lon="5.756032"><ele>1675.78</ele></trkpt>
            <trkpt lat="45.324068" lon="5.756114"><ele>1675.93</ele></trkpt>
            <trkpt lat="45.324158" lon="5.756218"><ele>1679.13</ele></trkpt>
            <trkpt lat="45.324182" lon="5.756237"><ele>1681.43</ele></trkpt>
            <trkpt lat="45.324185" lon="5.75623"><ele>1678.29</ele></trkpt>
            <trkpt lat="45.324185" lon="5.75623"><ele>1678.29</ele></trkpt>
            <trkpt lat="45.324182" lon="5.756237"><ele>1681.43</ele></trkpt>
            <trkpt lat="45.324211" lon="5.756259"><ele>1680.55</ele></trkpt>
            <trkpt lat="45.324249" lon="5.756298"><ele>1681.81</ele></trkpt>
            <trkpt lat="45.324279" lon="5.756323"><ele>1682.87</ele></trkpt>
            <trkpt lat="45.324338" lon="5.75637"><ele>1683.71</ele></trkpt>
            <trkpt lat="45.32441" lon="5.756384"><ele>1680.89</ele></trkpt>
            <trkpt lat="45.32449" lon="5.756447"><ele>1679.3</ele></trkpt>
            <trkpt lat="45.324543" lon="5.756535"><ele>1681.8</ele></trkpt>
            <trkpt lat="45.32459" lon="5.756596"><ele>1680.43</ele></trkpt>
            <trkpt lat="45.324604" lon="5.756649"><ele>1681.75</ele></trkpt>
            <trkpt lat="45.324615" lon="5.756841"><ele>1685.64</ele></trkpt>
            <trkpt lat="45.324636" lon="5.757041"><ele>1692.11</ele></trkpt>
            <trkpt lat="45.324654" lon="5.757121"><ele>1695</ele></trkpt>
            <trkpt lat="45.324704" lon="5.757212"><ele>1692.97</ele></trkpt>
            <trkpt lat="45.324803" lon="5.757289"><ele>1691.68</ele></trkpt>
            <trkpt lat="45.324893" lon="5.757304"><ele>1686.9</ele></trkpt>
            <trkpt lat="45.324935" lon="5.757309"><ele>1685.79</ele></trkpt>
            <trkpt lat="45.324964" lon="5.757405"><ele>1685.11</ele></trkpt>
            <trkpt lat="45.32499" lon="5.757455"><ele>1686.01</ele></trkpt>
            <trkpt lat="45.325023" lon="5.757518"><ele>1682.78</ele></trkpt>
            <trkpt lat="45.325064" lon="5.757634"><ele>1678.78</ele></trkpt>
            <trkpt lat="45.32506" lon="5.757728"><ele>1678.38</ele></trkpt>
            <trkpt lat="45.325046" lon="5.757822"><ele>1677.26</ele></trkpt>
            <trkpt lat="45.325034" lon="5.757964"><ele>1675.73</ele></trkpt>
            <trkpt lat="45.32501" lon="5.758091"><ele>1669.67</ele></trkpt>
            <trkpt lat="45.324964" lon="5.758247"><ele>1665.71</ele></trkpt>
            <trkpt lat="45.324885" lon="5.758475"><ele>1658.8</ele></trkpt>
            <trkpt lat="45.324844" lon="5.758651"><ele>1658.42</ele></trkpt>
            <trkpt lat="45.324823" lon="5.75873"><ele>1661.97</ele></trkpt>
            <trkpt lat="45.324825" lon="5.758843"><ele>1660.23</ele></trkpt>
            <trkpt lat="45.324826" lon="5.758889"><ele>1659.83</ele></trkpt>
            <trkpt lat="45.324804" lon="5.758959"><ele>1659.04</ele></trkpt>
            <trkpt lat="45.324794" lon="5.759098"><ele>1657.05</ele></trkpt>
            <trkpt lat="45.324785" lon="5.759295"><ele>1650.71</ele></trkpt>
            <trkpt lat="45.32478" lon="5.759431"><ele>1650.99</ele></trkpt>
            <trkpt lat="45.324798" lon="5.75948"><ele>1645.6</ele></trkpt>
            <trkpt lat="45.324805" lon="5.759545"><ele>1643.54</ele></trkpt>
            <trkpt lat="45.324833" lon="5.759626"><ele>1641.83</ele></trkpt>
            <trkpt lat="45.324852" lon="5.759737"><ele>1642.99</ele></trkpt>
            <trkpt lat="45.324876" lon="5.759847"><ele>1644.31</ele></trkpt>
            <trkpt lat="45.324943" lon="5.759913"><ele>1644.06</ele></trkpt>
            <trkpt lat="45.325025" lon="5.759995"><ele>1643.08</ele></trkpt>
            <trkpt lat="45.325084" lon="5.760074"><ele>1641.95</ele></trkpt>
            <trkpt lat="45.325083" lon="5.760076"><ele>1643.74</ele></trkpt>
            <trkpt lat="45.325083" lon="5.760076"><ele>1643.74</ele></trkpt>
            <trkpt lat="45.325084" lon="5.760074"><ele>1641.95</ele></trkpt>
            <trkpt lat="45.325111" lon="5.760109"><ele>1643.21</ele></trkpt>
            <trkpt lat="45.325189" lon="5.76019"><ele>1642.28</ele></trkpt>
            <trkpt lat="45.325285" lon="5.760285"><ele>1641.41</ele></trkpt>
            <trkpt lat="45.325353" lon="5.760333"><ele>1638.88</ele></trkpt>
            <trkpt lat="45.325408" lon="5.7604"><ele>1639.76</ele></trkpt>
            <trkpt lat="45.325464" lon="5.760481"><ele>1638.98</ele></trkpt>
            <trkpt lat="45.325534" lon="5.760626"><ele>1641.64</ele></trkpt>
            <trkpt lat="45.326184" lon="5.761283"><ele>1646.89</ele></trkpt>
            <trkpt lat="45.326184" lon="5.76128304"><ele>1646.89</ele></trkpt>
            <trkpt lat="45.32626826" lon="5.76132736"><ele>1648.53</ele></trkpt>
            <trkpt lat="45.32635251" lon="5.76137167"><ele>1651.4</ele></trkpt>
            <trkpt lat="45.32643677" lon="5.76141599"><ele>1656.26</ele></trkpt>
            <trkpt lat="45.32652102" lon="5.76146031"><ele>1661.36</ele></trkpt>
            <trkpt lat="45.32654607" lon="5.76147348"><ele>1664.75</ele></trkpt>
            <trkpt lat="45.32654607" lon="5.76147348"><ele>1664.75</ele></trkpt>
            <trkpt lat="45.32663113" lon="5.76143238"><ele>1668.87</ele></trkpt>
            <trkpt lat="45.32671619" lon="5.76139129"><ele>1673</ele></trkpt>
            <trkpt lat="45.32680124" lon="5.76135019"><ele>1677.59</ele></trkpt>
            <trkpt lat="45.3268863" lon="5.76130909"><ele>1682.22</ele></trkpt>
            <trkpt lat="45.32697136" lon="5.76126799"><ele>1684.34</ele></trkpt>
            <trkpt lat="45.32704014" lon="5.76123476"><ele>1689.35</ele></trkpt>
            <trkpt lat="45.32704014" lon="5.76123476"><ele>1689.35</ele></trkpt>
            <trkpt lat="45.32709929" lon="5.7611386"><ele>1691.45</ele></trkpt>
            <trkpt lat="45.32715845" lon="5.76104244"><ele>1696.75</ele></trkpt>
            <trkpt lat="45.3272176" lon="5.76094628"><ele>1698.41</ele></trkpt>
            <trkpt lat="45.32727676" lon="5.76085013"><ele>1703.8</ele></trkpt>
            <trkpt lat="45.32733591" lon="5.76075397"><ele>1706.91</ele></trkpt>
            <trkpt lat="45.32734375" lon="5.76074123"><ele>1707.15</ele></trkpt>
            <trkpt lat="45.32734375" lon="5.76074123"><ele>1707.15</ele></trkpt>
            <trkpt lat="45.32737396" lon="5.76086156"><ele>1709.85</ele></trkpt>
            <trkpt lat="45.32740418" lon="5.76098189"><ele>1712.39</ele></trkpt>
            <trkpt lat="45.32742861" lon="5.76107919"><ele>1712.37</ele></trkpt>
            <trkpt lat="45.32742861" lon="5.76107919"><ele>1712.37</ele></trkpt>
            <trkpt lat="45.32744196" lon="5.76120554"><ele>1712.33</ele></trkpt>
            <trkpt lat="45.32745532" lon="5.7613319"><ele>1714.26</ele></trkpt>
            <trkpt lat="45.32746867" lon="5.76145825"><ele>1716.19</ele></trkpt>
            <trkpt lat="45.32748203" lon="5.7615846"><ele>1718.74</ele></trkpt>
            <trkpt lat="45.32749538" lon="5.76171096"><ele>1722.47</ele></trkpt>
            <trkpt lat="45.32750874" lon="5.76183731"><ele>1725.5</ele></trkpt>
            <trkpt lat="45.32750969" lon="5.7618463"><ele>1725.5</ele></trkpt>
            <trkpt lat="45.32750969" lon="5.7618463"><ele>1725.5</ele></trkpt>
            <trkpt lat="45.32747294" lon="5.76196289"><ele>1727.46</ele></trkpt>
            <trkpt lat="45.32746066" lon="5.76200187"><ele>1728.5</ele></trkpt>
            <trkpt lat="45.32746066" lon="5.76200187"><ele>1728.5</ele></trkpt>
            <trkpt lat="45.32739675" lon="5.76209166"><ele>1726.94</ele></trkpt>
            <trkpt lat="45.32733283" lon="5.76218144"><ele>1726.97</ele></trkpt>
            <trkpt lat="45.32726892" lon="5.76227123"><ele>1725.17</ele></trkpt>
            <trkpt lat="45.32720501" lon="5.76236102"><ele>1725.77</ele></trkpt>
            <trkpt lat="45.32715517" lon="5.76243103"><ele>1726.59</ele></trkpt>
            <trkpt lat="45.32715517" lon="5.76243103"><ele>1726.59</ele></trkpt>
            <trkpt lat="45.32709249" lon="5.76252255"><ele>1725.62</ele></trkpt>
            <trkpt lat="45.3270298" lon="5.76261408"><ele>1726.49</ele></trkpt>
            <trkpt lat="45.32696712" lon="5.7627056"><ele>1725.77</ele></trkpt>
            <trkpt lat="45.32694208" lon="5.76274216"><ele>1727.43</ele></trkpt>
            <trkpt lat="45.32694208" lon="5.76274216"><ele>1727.43</ele></trkpt>
            <trkpt lat="45.32688629" lon="5.7628423"><ele>1729.38</ele></trkpt>
            <trkpt lat="45.3268305" lon="5.76294244"><ele>1732.39</ele></trkpt>
            <trkpt lat="45.32678368" lon="5.76302648"><ele>1735.47</ele></trkpt>
            <trkpt lat="45.32678368" lon="5.76302648"><ele>1735.47</ele></trkpt>
            <trkpt lat="45.32673331" lon="5.76313228"><ele>1738.66</ele></trkpt>
            <trkpt lat="45.32668294" lon="5.76323807"><ele>1744.39</ele></trkpt>
            <trkpt lat="45.32663257" lon="5.76334387"><ele>1748.85</ele></trkpt>
            <trkpt lat="45.3266215" lon="5.76336712"><ele>1751.06</ele></trkpt>
            <trkpt lat="45.3266215" lon="5.76336712"><ele>1751.06</ele></trkpt>
            <trkpt lat="45.32670732" lon="5.76340487"><ele>1753.43</ele></trkpt>
            <trkpt lat="45.32679314" lon="5.76344262"><ele>1754.86</ele></trkpt>
            <trkpt lat="45.32680442" lon="5.76344758"><ele>1758.31</ele></trkpt>
            <trkpt lat="45.32680442" lon="5.76344758"><ele>1758.31</ele></trkpt>
            <trkpt lat="45.32672735" lon="5.76351322"><ele>1758.51</ele></trkpt>
            <trkpt lat="45.32665028" lon="5.76357886"><ele>1762.47</ele></trkpt>
            <trkpt lat="45.32657321" lon="5.7636445"><ele>1764.9</ele></trkpt>
            <trkpt lat="45.32649614" lon="5.76371015"><ele>1770.98</ele></trkpt>
            <trkpt lat="45.3264895" lon="5.7637158"><ele>1770.98</ele></trkpt>
            <trkpt lat="45.3264895" lon="5.7637158"><ele>1770.98</ele></trkpt>
            <trkpt lat="45.32640025" lon="5.76373031"><ele>1772.7</ele></trkpt>
            <trkpt lat="45.326311" lon="5.76374482"><ele>1774.47</ele></trkpt>
            <trkpt lat="45.32622549" lon="5.76375872"><ele>1778.32</ele></trkpt>
            <trkpt lat="45.32622549" lon="5.76375872"><ele>1778.32</ele></trkpt>
            <trkpt lat="45.32613933" lon="5.76379488"><ele>1781.26</ele></trkpt>
            <trkpt lat="45.32605317" lon="5.76383104"><ele>1780.37</ele></trkpt>
            <trkpt lat="45.32599543" lon="5.76385528"><ele>1783.96</ele></trkpt>
            <trkpt lat="45.32599543" lon="5.76385528"><ele>1783.96</ele></trkpt>
            <trkpt lat="45.32590617" lon="5.76384094"><ele>1788.39</ele></trkpt>
            <trkpt lat="45.32587851" lon="5.7638365"><ele>1789.42</ele></trkpt>
            <trkpt lat="45.32587851" lon="5.7638365"><ele>1789.42</ele></trkpt>
            <trkpt lat="45.32582928" lon="5.76394337"><ele>1795.91</ele></trkpt>
            <trkpt lat="45.32580685" lon="5.76399207"><ele>1803.38</ele></trkpt>
            <trkpt lat="45.32580685" lon="5.76399207"><ele>1803.38</ele></trkpt>
            <trkpt lat="45.32584834" lon="5.76405913"><ele>1806.72</ele></trkpt>
            <trkpt lat="45.32584834" lon="5.76405913"><ele>1806.72</ele></trkpt>
            <trkpt lat="45.3257766" lon="5.76413603"><ele>1809.85</ele></trkpt>
            <trkpt lat="45.32571822" lon="5.7641986"><ele>1822.41</ele></trkpt>
            <trkpt lat="45.32571822" lon="5.7641986"><ele>1822.41</ele></trkpt>
            <trkpt lat="45.32570573" lon="5.76432513"><ele>1821.91</ele></trkpt>
            <trkpt lat="45.32570313" lon="5.76435149"><ele>1823.21</ele></trkpt>
            <trkpt lat="45.32570313" lon="5.76435149"><ele>1823.21</ele></trkpt>
            <trkpt lat="45.32561357" lon="5.76436148"><ele>1834.3</ele></trkpt>
            <trkpt lat="45.32560695" lon="5.76436222"><ele>1834.3</ele></trkpt>
            <trkpt lat="45.32560695" lon="5.76436222"><ele>1834.3</ele></trkpt>
            <trkpt lat="45.32560318" lon="5.76445073"><ele>1834.33</ele></trkpt>
            <trkpt lat="45.32560318" lon="5.76445073"><ele>1834.33</ele></trkpt>
            <trkpt lat="45.32554472" lon="5.76443195"><ele>1842.59</ele></trkpt>
            <trkpt lat="45.32554472" lon="5.76443195"><ele>1842.59</ele></trkpt>
            <trkpt lat="45.32552209" lon="5.76435953"><ele>1842.14</ele></trkpt>
            <trkpt lat="45.32552209" lon="5.76435953"><ele>1842.14</ele></trkpt>
            <trkpt lat="45.32547118" lon="5.76436758"><ele>1845.91</ele></trkpt>
            <trkpt lat="45.32547118" lon="5.76436758"><ele>1845.91</ele></trkpt>
            <trkpt lat="45.32543825" lon="5.76448645"><ele>1849.99</ele></trkpt>
            <trkpt lat="45.32542214" lon="5.76454461"><ele>1852.07</ele></trkpt>
            <trkpt lat="45.32542214" lon="5.76454461"><ele>1852.07</ele></trkpt>
            <trkpt lat="45.32538254" lon="5.76443195"><ele>1854.73</ele></trkpt>
            <trkpt lat="45.32538254" lon="5.76443195"><ele>1854.73</ele></trkpt>
            <trkpt lat="45.32531088" lon="5.76449901"><ele>1854.91</ele></trkpt>
            <trkpt lat="45.32531088" lon="5.76449901"><ele>1854.91</ele></trkpt>
            <trkpt lat="45.32524299" lon="5.76442659"><ele>1857.45</ele></trkpt>
            <trkpt lat="45.32524299" lon="5.76442659"><ele>1857.45</ele></trkpt>
            <trkpt lat="45.32517947" lon="5.76433624"><ele>1859.88</ele></trkpt>
            <trkpt lat="45.32512796" lon="5.76426297"><ele>1861.12</ele></trkpt>
            <trkpt lat="45.32512796" lon="5.76426297"><ele>1861.12</ele></trkpt>
            <trkpt lat="45.32514888" lon="5.76413871"><ele>1863.31</ele></trkpt>
            <trkpt lat="45.3251698" lon="5.76401446"><ele>1862.19</ele></trkpt>
            <trkpt lat="45.32519072" lon="5.7638902"><ele>1859.79</ele></trkpt>
            <trkpt lat="45.32519208" lon="5.7638821"><ele>1859.79</ele></trkpt>
            <trkpt lat="45.325192" lon="5.763882"><ele>1859.79</ele></trkpt>
            <trkpt lat="45.32515" lon="5.763927"><ele>1861.81</ele></trkpt>
            <trkpt lat="45.325102" lon="5.763908"><ele>1861.34</ele></trkpt>
            <trkpt lat="45.324979" lon="5.763847"><ele>1859.86</ele></trkpt>
            <trkpt lat="45.324927" lon="5.763818"><ele>1858.45</ele></trkpt>
            <trkpt lat="45.324894" lon="5.7638"><ele>1858.01</ele></trkpt>
            <trkpt lat="45.324879" lon="5.763782"><ele>1856.99</ele></trkpt>
            <trkpt lat="45.324736" lon="5.763777"><ele>1854.8</ele></trkpt>
            <trkpt lat="45.324692" lon="5.763766"><ele>1854.09</ele></trkpt>
            <trkpt lat="45.32463" lon="5.763716"><ele>1852.61</ele></trkpt>
            <trkpt lat="45.324464" lon="5.763478"><ele>1845.12</ele></trkpt>
            <trkpt lat="45.324288" lon="5.763258"><ele>1839.01</ele></trkpt>
            <trkpt lat="45.324149" lon="5.76313"><ele>1835.47</ele></trkpt>
            <trkpt lat="45.324115" lon="5.763082"><ele>1834.52</ele></trkpt>
            <trkpt lat="45.323989" lon="5.762927"><ele>1831.92</ele></trkpt>
            <trkpt lat="45.323867" lon="5.76284"><ele>1830.85</ele></trkpt>
            <trkpt lat="45.323867" lon="5.76284"><ele>1830.85</ele></trkpt>
            <trkpt lat="45.323723" lon="5.762696"><ele>1830</ele></trkpt>
            <trkpt lat="45.323632" lon="5.762574"><ele>1829.67</ele></trkpt>
            <trkpt lat="45.323638" lon="5.762565"><ele>1829.67</ele></trkpt>
            <trkpt lat="45.323638" lon="5.762565"><ele>1829.67</ele></trkpt>
            <trkpt lat="45.323632" lon="5.762574"><ele>1829.67</ele></trkpt>
            <trkpt lat="45.323626" lon="5.762566"><ele>1829.67</ele></trkpt>
            <trkpt lat="45.323546" lon="5.762462"><ele>1829.83</ele></trkpt>
            <trkpt lat="45.323484" lon="5.762349"><ele>1830.07</ele></trkpt>
            <trkpt lat="45.323362" lon="5.762242"><ele>1831.8</ele></trkpt>
            <trkpt lat="45.32327" lon="5.762145"><ele>1832.78</ele></trkpt>
            <trkpt lat="45.323176" lon="5.762115"><ele>1833.68</ele></trkpt>
            <trkpt lat="45.323116" lon="5.762163"><ele>1833.66</ele></trkpt>
            <trkpt lat="45.323017" lon="5.76209"><ele>1834.53</ele></trkpt>
            <trkpt lat="45.322991" lon="5.761947"><ele>1835.48</ele></trkpt>
            <trkpt lat="45.322939" lon="5.761886"><ele>1835.21</ele></trkpt>
            <trkpt lat="45.322886" lon="5.761891"><ele>1833.93</ele></trkpt>
            <trkpt lat="45.322812" lon="5.761803"><ele>1833.35</ele></trkpt>
            <trkpt lat="45.32276" lon="5.761742"><ele>1832.4</ele></trkpt>
            <trkpt lat="45.322665" lon="5.761755"><ele>1831.5</ele></trkpt>
            <trkpt lat="45.32251" lon="5.761788"><ele>1828.35</ele></trkpt>
            <trkpt lat="45.322378" lon="5.76179"><ele>1823.13</ele></trkpt>
            <trkpt lat="45.322378" lon="5.761793"><ele>1823.13</ele></trkpt>
            <trkpt lat="45.322378" lon="5.761793"><ele>1823.13</ele></trkpt>
            <trkpt lat="45.322378" lon="5.76179"><ele>1823.13</ele></trkpt>
            <trkpt lat="45.322374" lon="5.76179"><ele>1823.13</ele></trkpt>
            <trkpt lat="45.322226" lon="5.761816"><ele>1817.85</ele></trkpt>
            <trkpt lat="45.322133" lon="5.761753"><ele>1816.22</ele></trkpt>
            <trkpt lat="45.322054" lon="5.761607"><ele>1814.25</ele></trkpt>
            <trkpt lat="45.322007" lon="5.761579"><ele>1812.77</ele></trkpt>
            <trkpt lat="45.321964" lon="5.761716"><ele>1810.46</ele></trkpt>
            <trkpt lat="45.321915" lon="5.761898"><ele>1808.09</ele></trkpt>
            <trkpt lat="45.32191" lon="5.762098"><ele>1806.23</ele></trkpt>
            <trkpt lat="45.321815" lon="5.762021"><ele>1803.12</ele></trkpt>
            <trkpt lat="45.32175" lon="5.761922"><ele>1802.21</ele></trkpt>
            <trkpt lat="45.321692" lon="5.761783"><ele>1799.62</ele></trkpt>
            <trkpt lat="45.321607" lon="5.761587"><ele>1796.96</ele></trkpt>
            <trkpt lat="45.321554" lon="5.761515"><ele>1795.27</ele></trkpt>
            <trkpt lat="45.321522" lon="5.761597"><ele>1795.3</ele></trkpt>
            <trkpt lat="45.321492" lon="5.761612"><ele>1793.54</ele></trkpt>
            <trkpt lat="45.321411" lon="5.761524"><ele>1790.32</ele></trkpt>
            <trkpt lat="45.321376" lon="5.761522"><ele>1788.67</ele></trkpt>
            <trkpt lat="45.32135" lon="5.761622"><ele>1786.72</ele></trkpt>
            <trkpt lat="45.321291" lon="5.76161"><ele>1785</ele></trkpt>
            <trkpt lat="45.321258" lon="5.761533"><ele>1783.62</ele></trkpt>
            <trkpt lat="45.321188" lon="5.761488"><ele>1782.01</ele></trkpt>
            <trkpt lat="45.321129" lon="5.761485"><ele>1778.54</ele></trkpt>
            <trkpt lat="45.321097" lon="5.761576"><ele>1778.16</ele></trkpt>
            <trkpt lat="45.321064" lon="5.761716"><ele>1775.48</ele></trkpt>
            <trkpt lat="45.321028" lon="5.761707"><ele>1773.77</ele></trkpt>
            <trkpt lat="45.320996" lon="5.761596"><ele>1773.26</ele></trkpt>
            <trkpt lat="45.32095" lon="5.761544"><ele>1772.07</ele></trkpt>
            <trkpt lat="45.320897" lon="5.761532"><ele>1770.68</ele></trkpt>
            <trkpt lat="45.320852" lon="5.761447"><ele>1769.77</ele></trkpt>
            <trkpt lat="45.320803" lon="5.76152"><ele>1767.94</ele></trkpt>
            <trkpt lat="45.320749" lon="5.761576"><ele>1764.56</ele></trkpt>
            <trkpt lat="45.320678" lon="5.761539"><ele>1763.31</ele></trkpt>
            <trkpt lat="45.320623" lon="5.761393"><ele>1762.42</ele></trkpt>
            <trkpt lat="45.320571" lon="5.761323"><ele>1759.1</ele></trkpt>
            <trkpt lat="45.320524" lon="5.761346"><ele>1757.1</ele></trkpt>
            <trkpt lat="45.320473" lon="5.761452"><ele>1754.66</ele></trkpt>
            <trkpt lat="45.320414" lon="5.761467"><ele>1752.52</ele></trkpt>
            <trkpt lat="45.320338" lon="5.761421"><ele>1748.46</ele></trkpt>
            <trkpt lat="45.320312" lon="5.761286"><ele>1748.27</ele></trkpt>
            <trkpt lat="45.320248" lon="5.761232"><ele>1747.14</ele></trkpt>
            <trkpt lat="45.320194" lon="5.761254"><ele>1745.64</ele></trkpt>
            <trkpt lat="45.320186" lon="5.761379"><ele>1742.17</ele></trkpt>
            <trkpt lat="45.3202" lon="5.761506"><ele>1741.39</ele></trkpt>
            <trkpt lat="45.320177" lon="5.761593"><ele>1738.42</ele></trkpt>
            <trkpt lat="45.320177" lon="5.761593"><ele>1738.42</ele></trkpt>
            <trkpt lat="45.320115" lon="5.761526"><ele>1737.48</ele></trkpt>
            <trkpt lat="45.320069" lon="5.761464"><ele>1737.35</ele></trkpt>
            <trkpt lat="45.320004" lon="5.761371"><ele>1735.57</ele></trkpt>
            <trkpt lat="45.31996" lon="5.761322"><ele>1734.52</ele></trkpt>
            <trkpt lat="45.319961" lon="5.761321"><ele>1734.52</ele></trkpt>
            <trkpt lat="45.319961" lon="5.761321"><ele>1734.52</ele></trkpt>
            <trkpt lat="45.31996" lon="5.761322"><ele>1734.52</ele></trkpt>
            <trkpt lat="45.319948" lon="5.761309"><ele>1734.52</ele></trkpt>
            <trkpt lat="45.319926" lon="5.761226"><ele>1733.99</ele></trkpt>
            <trkpt lat="45.319912" lon="5.761194"><ele>1734.57</ele></trkpt>
            <trkpt lat="45.319854" lon="5.76116"><ele>1733.18</ele></trkpt>
            <trkpt lat="45.319815" lon="5.761117"><ele>1731.78</ele></trkpt>
            <trkpt lat="45.319786" lon="5.761062"><ele>1730.38</ele></trkpt>
            <trkpt lat="45.319766" lon="5.761047"><ele>1730.38</ele></trkpt>
            <trkpt lat="45.319718" lon="5.761005"><ele>1727</ele></trkpt>
            <trkpt lat="45.319691" lon="5.760945"><ele>1727.75</ele></trkpt>
            <trkpt lat="45.319647" lon="5.760893"><ele>1726.18</ele></trkpt>
            <trkpt lat="45.319452" lon="5.760709"><ele>1717.72</ele></trkpt>
            <trkpt lat="45.319428" lon="5.760678"><ele>1717.93</ele></trkpt>
            <trkpt lat="45.319414" lon="5.760628"><ele>1716.47</ele></trkpt>
            <trkpt lat="45.319426" lon="5.760565"><ele>1717.34</ele></trkpt>
            <trkpt lat="45.319426" lon="5.760505"><ele>1716.71</ele></trkpt>
            <trkpt lat="45.319464" lon="5.760366"><ele>1714.79</ele></trkpt>
            <trkpt lat="45.319519" lon="5.760105"><ele>1708.56</ele></trkpt>
            <trkpt lat="45.319555" lon="5.759676"><ele>1697.42</ele></trkpt>
            <trkpt lat="45.319607" lon="5.759256"><ele>1687.09</ele></trkpt>
            <trkpt lat="45.319606" lon="5.759175"><ele>1685.81</ele></trkpt>
            <trkpt lat="45.319599" lon="5.759136"><ele>1685.37</ele></trkpt>
            <trkpt lat="45.31959" lon="5.759084"><ele>1684.67</ele></trkpt>
            <trkpt lat="45.319531" lon="5.758946"><ele>1684.14</ele></trkpt>
            <trkpt lat="45.31945" lon="5.758805"><ele>1683.04</ele></trkpt>
            <trkpt lat="45.319313" lon="5.758612"><ele>1680.78</ele></trkpt>
            <trkpt lat="45.319187" lon="5.758378"><ele>1676.07</ele></trkpt>
            <trkpt lat="45.319165" lon="5.758308"><ele>1675.3</ele></trkpt>
            <trkpt lat="45.319158" lon="5.758273"><ele>1674.71</ele></trkpt>
            <trkpt lat="45.319148" lon="5.758231"><ele>1674.19</ele></trkpt>
            <trkpt lat="45.319142" lon="5.758191"><ele>1673.77</ele></trkpt>
            <trkpt lat="45.31913" lon="5.758131"><ele>1673.45</ele></trkpt>
            <trkpt lat="45.319109" lon="5.758069"><ele>1672.95</ele></trkpt>
            <trkpt lat="45.318996" lon="5.757728"><ele>1671.71</ele></trkpt>
            <trkpt lat="45.318895" lon="5.757395"><ele>1671.61</ele></trkpt>
            <trkpt lat="45.318869" lon="5.757226"><ele>1671.3</ele></trkpt>
            <trkpt lat="45.318857" lon="5.757098"><ele>1671.4</ele></trkpt>
            <trkpt lat="45.318862" lon="5.756994"><ele>1670.13</ele></trkpt>
            <trkpt lat="45.318865" lon="5.756926"><ele>1669.9</ele></trkpt>
            <trkpt lat="45.318889" lon="5.756845"><ele>1669.49</ele></trkpt>
            <trkpt lat="45.318913" lon="5.756794"><ele>1668.76</ele></trkpt>
            <trkpt lat="45.318928" lon="5.756763"><ele>1668.68</ele></trkpt>
            <trkpt lat="45.318964" lon="5.75668"><ele>1668.18</ele></trkpt>
            <trkpt lat="45.319023" lon="5.75653"><ele>1668.02</ele></trkpt>
            <trkpt lat="45.319023" lon="5.75653"><ele>1668.02</ele></trkpt>
            <trkpt lat="45.319088" lon="5.756496"><ele>1667.71</ele></trkpt>
            <trkpt lat="45.319089" lon="5.756503"><ele>1667.71</ele></trkpt>
        </trkseg>
    </trk>
</gpx>
