<?xml version="1.0"?>
<gpx creator="map2gpx.fr" version="1.0" xmlns="http://www.topografix.com/GPX/1/1" xmlns:xsi="http://www.w3.org/2001/XMLSchema-instance" xsi:schemaLocation="http://www.topografix.com/GPX/1/1 http://www.topografix.com/GPX/1/1/gpx.xsd">
    <trk>
        <name>Lac de la Muzelle</name>
        <trkseg>
            <trkpt lat="44.984615" lon="6.121649"><ele>936.41</ele></trkpt>
            <trkpt lat="44.984601" lon="6.121658"><ele>936.41</ele></trkpt>
            <trkpt lat="44.984575" lon="6.121581"><ele>936.92</ele></trkpt>
            <trkpt lat="44.984558" lon="6.121528"><ele>936.87</ele></trkpt>
            <trkpt lat="44.98451" lon="6.121387"><ele>937.22</ele></trkpt>
            <trkpt lat="44.984489" lon="6.121335"><ele>937.52</ele></trkpt>
            <trkpt lat="44.984489" lon="6.121335"><ele>937.52</ele></trkpt>
            <trkpt lat="44.984469" lon="6.121259"><ele>937.5</ele></trkpt>
            <trkpt lat="44.984417" lon="6.121133"><ele>937.96</ele></trkpt>
            <trkpt lat="44.984392" lon="6.121078"><ele>937.98</ele></trkpt>
            <trkpt lat="44.984201" lon="6.120795"><ele>939.45</ele></trkpt>
            <trkpt lat="44.984061" lon="6.120594"><ele>940.75</ele></trkpt>
            <trkpt lat="44.984042" lon="6.120568"><ele>940.88</ele></trkpt>
            <trkpt lat="44.983991" lon="6.120511"><ele>941.64</ele></trkpt>
            <trkpt lat="44.983933" lon="6.120463"><ele>942.11</ele></trkpt>
            <trkpt lat="44.983861" lon="6.120425"><ele>942.92</ele></trkpt>
            <trkpt lat="44.983721" lon="6.120388"><ele>944.06</ele></trkpt>
            <trkpt lat="44.983613" lon="6.120335"><ele>944.86</ele></trkpt>
            <trkpt lat="44.98357" lon="6.120292"><ele>945.31</ele></trkpt>
            <trkpt lat="44.983551" lon="6.12028"><ele>945.76</ele></trkpt>
            <trkpt lat="44.983376" lon="6.120209"><ele>947.31</ele></trkpt>
            <trkpt lat="44.983376" lon="6.120209"><ele>947.31</ele></trkpt>
            <trkpt lat="44.983216" lon="6.120183"><ele>949.28</ele></trkpt>
            <trkpt lat="44.982965" lon="6.120166"><ele>952.82</ele></trkpt>
            <trkpt lat="44.982871" lon="6.120156"><ele>954.86</ele></trkpt>
            <trkpt lat="44.982806" lon="6.120134"><ele>955.6</ele></trkpt>
            <trkpt lat="44.982763" lon="6.120104"><ele>956.22</ele></trkpt>
            <trkpt lat="44.982723" lon="6.12007"><ele>956.97</ele></trkpt>
            <trkpt lat="44.982723" lon="6.12007"><ele>956.97</ele></trkpt>
            <trkpt lat="44.982696" lon="6.120048"><ele>957.81</ele></trkpt>
            <trkpt lat="44.982644" lon="6.120003"><ele>958.76</ele></trkpt>
            <trkpt lat="44.982644" lon="6.120003"><ele>958.76</ele></trkpt>
            <trkpt lat="44.982433" lon="6.119995"><ele>963.7</ele></trkpt>
            <trkpt lat="44.981997" lon="6.119966"><ele>977.93</ele></trkpt>
            <trkpt lat="44.981997" lon="6.119964"><ele>977.93</ele></trkpt>
            <trkpt lat="44.981997" lon="6.119964"><ele>977.93</ele></trkpt>
            <trkpt lat="44.981997" lon="6.119966"><ele>977.93</ele></trkpt>
            <trkpt lat="44.981894" lon="6.119959"><ele>981.46</ele></trkpt>
            <trkpt lat="44.980378" lon="6.12082"><ele>1023.78</ele></trkpt>
            <trkpt lat="44.980154" lon="6.120806"><ele>1030.38</ele></trkpt>
            <trkpt lat="44.979704" lon="6.120544"><ele>1056.32</ele></trkpt>
            <trkpt lat="44.979553" lon="6.121058"><ele>1039.96</ele></trkpt>
            <trkpt lat="44.979553" lon="6.121058"><ele>1039.96</ele></trkpt>
            <trkpt lat="44.979704" lon="6.120544"><ele>1056.32</ele></trkpt>
            <trkpt lat="44.979536" lon="6.120446"><ele>1068.47</ele></trkpt>
            <trkpt lat="44.979497" lon="6.120253"><ele>1078.21</ele></trkpt>
            <trkpt lat="44.979142" lon="6.120102"><ele>1100.25</ele></trkpt>
            <trkpt lat="44.979057" lon="6.11997"><ele>1110.68</ele></trkpt>
            <trkpt lat="44.978607" lon="6.119938"><ele>1135.45</ele></trkpt>
            <trkpt lat="44.978573" lon="6.119619"><ele>1154.83</ele></trkpt>
            <trkpt lat="44.978394" lon="6.119607"><ele>1165.22</ele></trkpt>
            <trkpt lat="44.978211" lon="6.119405"><ele>1186.92</ele></trkpt>
            <trkpt lat="44.978132" lon="6.119082"><ele>1205.36</ele></trkpt>
            <trkpt lat="44.977167" lon="6.119664"><ele>1209.7</ele></trkpt>
            <trkpt lat="44.976271" lon="6.119539"><ele>1225.49</ele></trkpt>
            <trkpt lat="44.97561" lon="6.119114"><ele>1246</ele></trkpt>
            <trkpt lat="44.97525" lon="6.119089"><ele>1244.03</ele></trkpt>
            <trkpt lat="44.975157" lon="6.119209"><ele>1240.07</ele></trkpt>
            <trkpt lat="44.974842" lon="6.119188"><ele>1240.41</ele></trkpt>
            <trkpt lat="44.974709" lon="6.119116"><ele>1244.01</ele></trkpt>
            <trkpt lat="44.974305" lon="6.119088"><ele>1245.42</ele></trkpt>
            <trkpt lat="44.974083" lon="6.119034"><ele>1249.59</ele></trkpt>
            <trkpt lat="44.973948" lon="6.119001"><ele>1250.36</ele></trkpt>
            <trkpt lat="44.973779" lon="6.118791"><ele>1258.11</ele></trkpt>
            <trkpt lat="44.973611" lon="6.118582"><ele>1264.93</ele></trkpt>
            <trkpt lat="44.973516" lon="6.118464"><ele>1268.23</ele></trkpt>
            <trkpt lat="44.973291" lon="6.118453"><ele>1265.08</ele></trkpt>
            <trkpt lat="44.973066" lon="6.118442"><ele>1261.63</ele></trkpt>
            <trkpt lat="44.972841" lon="6.11843"><ele>1259.95</ele></trkpt>
            <trkpt lat="44.972796" lon="6.118428"><ele>1259.57</ele></trkpt>
            <trkpt lat="44.972639" lon="6.118359"><ele>1259.57</ele></trkpt>
            <trkpt lat="44.972538" lon="6.118094"><ele>1264.52</ele></trkpt>
            <trkpt lat="44.972447" lon="6.117803"><ele>1268.5</ele></trkpt>
            <trkpt lat="44.972376" lon="6.117574"><ele>1274.33</ele></trkpt>
            <trkpt lat="44.972286" lon="6.117305"><ele>1279.46</ele></trkpt>
            <trkpt lat="44.972325" lon="6.117263"><ele>1282.23</ele></trkpt>
            <trkpt lat="44.972397" lon="6.117221"><ele>1285.15</ele></trkpt>
            <trkpt lat="44.972398" lon="6.117106"><ele>1289.9</ele></trkpt>
            <trkpt lat="44.972348" lon="6.117065"><ele>1290.02</ele></trkpt>
            <trkpt lat="44.972197" lon="6.116831"><ele>1294.13</ele></trkpt>
            <trkpt lat="44.972134" lon="6.116735"><ele>1294.73</ele></trkpt>
            <trkpt lat="44.971983" lon="6.116499"><ele>1302.33</ele></trkpt>
            <trkpt lat="44.971832" lon="6.116266"><ele>1307.82</ele></trkpt>
            <trkpt lat="44.971681" lon="6.116032"><ele>1319.83</ele></trkpt>
            <trkpt lat="44.971374" lon="6.115856"><ele>1323.74</ele></trkpt>
            <trkpt lat="44.971279" lon="6.11577"><ele>1327.91</ele></trkpt>
            <trkpt lat="44.971225" lon="6.115644"><ele>1335.69</ele></trkpt>
            <trkpt lat="44.97118" lon="6.115549"><ele>1340.34</ele></trkpt>
            <trkpt lat="44.971119" lon="6.115495"><ele>1342.15</ele></trkpt>
            <trkpt lat="44.970982" lon="6.11546"><ele>1341.51</ele></trkpt>
            <trkpt lat="44.971009" lon="6.115422"><ele>1344.88</ele></trkpt>
            <trkpt lat="44.971061" lon="6.115328"><ele>1350.82</ele></trkpt>
            <trkpt lat="44.970911" lon="6.115312"><ele>1348.5</ele></trkpt>
            <trkpt lat="44.970853" lon="6.115258"><ele>1352.18</ele></trkpt>
            <trkpt lat="44.970896" lon="6.115229"><ele>1352.82</ele></trkpt>
            <trkpt lat="44.970969" lon="6.115192"><ele>1356.73</ele></trkpt>
            <trkpt lat="44.970661" lon="6.114957"><ele>1367.11</ele></trkpt>
            <trkpt lat="44.970661" lon="6.114957"><ele>1367.11</ele></trkpt>
            <trkpt lat="44.97052" lon="6.114889"><ele>1368.18</ele></trkpt>
            <trkpt lat="44.970428" lon="6.114846"><ele>1369.52</ele></trkpt>
            <trkpt lat="44.97043" lon="6.114836"><ele>1369.52</ele></trkpt>
            <trkpt lat="44.97043" lon="6.114836"><ele>1369.52</ele></trkpt>
            <trkpt lat="44.970428" lon="6.114846"><ele>1369.52</ele></trkpt>
            <trkpt lat="44.970377" lon="6.114823"><ele>1371.51</ele></trkpt>
            <trkpt lat="44.970265" lon="6.114845"><ele>1368.88</ele></trkpt>
            <trkpt lat="44.970185" lon="6.114806"><ele>1370.71</ele></trkpt>
            <trkpt lat="44.970244" lon="6.114769"><ele>1372.96</ele></trkpt>
            <trkpt lat="44.970259" lon="6.114731"><ele>1375.15</ele></trkpt>
            <trkpt lat="44.970188" lon="6.114692"><ele>1377.08</ele></trkpt>
            <trkpt lat="44.970113" lon="6.114686"><ele>1376.67</ele></trkpt>
            <trkpt lat="44.970044" lon="6.114632"><ele>1378.5</ele></trkpt>
            <trkpt lat="44.970028" lon="6.114569"><ele>1382.5</ele></trkpt>
            <trkpt lat="44.96999" lon="6.114493"><ele>1384.29</ele></trkpt>
            <trkpt lat="44.969956" lon="6.114433"><ele>1387.93</ele></trkpt>
            <trkpt lat="44.969925" lon="6.1143"><ele>1393.67</ele></trkpt>
            <trkpt lat="44.969918" lon="6.114196"><ele>1397.44</ele></trkpt>
            <trkpt lat="44.969918" lon="6.114154"><ele>1399.29</ele></trkpt>
            <trkpt lat="44.969922" lon="6.114084"><ele>1402.95</ele></trkpt>
            <trkpt lat="44.969914" lon="6.114022"><ele>1403.8</ele></trkpt>
            <trkpt lat="44.969889" lon="6.113972"><ele>1407.23</ele></trkpt>
            <trkpt lat="44.969845" lon="6.113925"><ele>1407.76</ele></trkpt>
            <trkpt lat="44.969806" lon="6.113891"><ele>1408.15</ele></trkpt>
            <trkpt lat="44.969781" lon="6.113858"><ele>1407.02</ele></trkpt>
            <trkpt lat="44.969748" lon="6.113772"><ele>1409.89</ele></trkpt>
            <trkpt lat="44.969709" lon="6.113718"><ele>1411.39</ele></trkpt>
            <trkpt lat="44.969707" lon="6.113668"><ele>1412.7</ele></trkpt>
            <trkpt lat="44.969736" lon="6.113651"><ele>1412.7</ele></trkpt>
            <trkpt lat="44.96975" lon="6.113612"><ele>1415.48</ele></trkpt>
            <trkpt lat="44.969736" lon="6.113576"><ele>1415.26</ele></trkpt>
            <trkpt lat="44.96969" lon="6.113545"><ele>1415.16</ele></trkpt>
            <trkpt lat="44.969729" lon="6.113512"><ele>1416.49</ele></trkpt>
            <trkpt lat="44.969773" lon="6.113493"><ele>1419.36</ele></trkpt>
            <trkpt lat="44.969812" lon="6.113497"><ele>1421.28</ele></trkpt>
            <trkpt lat="44.969847" lon="6.113501"><ele>1423.3</ele></trkpt>
            <trkpt lat="44.96991" lon="6.113531"><ele>1423.84</ele></trkpt>
            <trkpt lat="44.969913" lon="6.113498"><ele>1425.29</ele></trkpt>
            <trkpt lat="44.969899" lon="6.113461"><ele>1426.7</ele></trkpt>
            <trkpt lat="44.969874" lon="6.113419"><ele>1428.08</ele></trkpt>
            <trkpt lat="44.969861" lon="6.113291"><ele>1428.62</ele></trkpt>
            <trkpt lat="44.969845" lon="6.113209"><ele>1431.45</ele></trkpt>
            <trkpt lat="44.969785" lon="6.113121"><ele>1430.39</ele></trkpt>
            <trkpt lat="44.969783" lon="6.113052"><ele>1433.85</ele></trkpt>
            <trkpt lat="44.969788" lon="6.113007"><ele>1437.79</ele></trkpt>
            <trkpt lat="44.969857" lon="6.113024"><ele>1440.01</ele></trkpt>
            <trkpt lat="44.969811" lon="6.11289"><ele>1443.48</ele></trkpt>
            <trkpt lat="44.969792" lon="6.112841"><ele>1445.36</ele></trkpt>
            <trkpt lat="44.969755" lon="6.112803"><ele>1445.07</ele></trkpt>
            <trkpt lat="44.969728" lon="6.112751"><ele>1444.93</ele></trkpt>
            <trkpt lat="44.969701" lon="6.112676"><ele>1446.85</ele></trkpt>
            <trkpt lat="44.969689" lon="6.112581"><ele>1450.49</ele></trkpt>
            <trkpt lat="44.969675" lon="6.112512"><ele>1454.18</ele></trkpt>
            <trkpt lat="44.969661" lon="6.112441"><ele>1456.08</ele></trkpt>
            <trkpt lat="44.969634" lon="6.112389"><ele>1458.65</ele></trkpt>
            <trkpt lat="44.969527" lon="6.112365"><ele>1454.76</ele></trkpt>
            <trkpt lat="44.969488" lon="6.112311"><ele>1456.66</ele></trkpt>
            <trkpt lat="44.969442" lon="6.112246"><ele>1458.33</ele></trkpt>
            <trkpt lat="44.969478" lon="6.112206"><ele>1461.13</ele></trkpt>
            <trkpt lat="44.969484" lon="6.112142"><ele>1463</ele></trkpt>
            <trkpt lat="44.969484" lon="6.112142"><ele>1463</ele></trkpt>
            <trkpt lat="44.969381" lon="6.112094"><ele>1462.83</ele></trkpt>
            <trkpt lat="44.969401" lon="6.112015"><ele>1466.64</ele></trkpt>
            <trkpt lat="44.969313" lon="6.112002"><ele>1467.28</ele></trkpt>
            <trkpt lat="44.969273" lon="6.111879"><ele>1471.02</ele></trkpt>
            <trkpt lat="44.969023" lon="6.11156"><ele>1483.28</ele></trkpt>
            <trkpt lat="44.968976" lon="6.111492"><ele>1485.5</ele></trkpt>
            <trkpt lat="44.968969" lon="6.111437"><ele>1489.46</ele></trkpt>
            <trkpt lat="44.968986" lon="6.111372"><ele>1490.59</ele></trkpt>
            <trkpt lat="44.969035" lon="6.11131"><ele>1494.2</ele></trkpt>
            <trkpt lat="44.969004" lon="6.111184"><ele>1498.91</ele></trkpt>
            <trkpt lat="44.969014" lon="6.111065"><ele>1502.1</ele></trkpt>
            <trkpt lat="44.969101" lon="6.110979"><ele>1507.85</ele></trkpt>
            <trkpt lat="44.969131" lon="6.110916"><ele>1513.07</ele></trkpt>
            <trkpt lat="44.969195" lon="6.110923"><ele>1516.77</ele></trkpt>
            <trkpt lat="44.969186" lon="6.110851"><ele>1516.6</ele></trkpt>
            <trkpt lat="44.9692" lon="6.110815"><ele>1520.24</ele></trkpt>
            <trkpt lat="44.969156" lon="6.110754"><ele>1521.38</ele></trkpt>
            <trkpt lat="44.969127" lon="6.110702"><ele>1521.01</ele></trkpt>
            <trkpt lat="44.969041" lon="6.110631"><ele>1518.86</ele></trkpt>
            <trkpt lat="44.969001" lon="6.110497"><ele>1521.71</ele></trkpt>
            <trkpt lat="44.969001" lon="6.110497"><ele>1521.71</ele></trkpt>
            <trkpt lat="44.968942" lon="6.110274"><ele>1524.48</ele></trkpt>
            <trkpt lat="44.968907" lon="6.110154"><ele>1524.83</ele></trkpt>
            <trkpt lat="44.96891" lon="6.110068"><ele>1526.46</ele></trkpt>
            <trkpt lat="44.968932" lon="6.109976"><ele>1530.69</ele></trkpt>
            <trkpt lat="44.968947" lon="6.109875"><ele>1532.82</ele></trkpt>
            <trkpt lat="44.968942" lon="6.109734"><ele>1536.47</ele></trkpt>
            <trkpt lat="44.968907" lon="6.109522"><ele>1541.35</ele></trkpt>
            <trkpt lat="44.968886" lon="6.109399"><ele>1543.09</ele></trkpt>
            <trkpt lat="44.968883" lon="6.109279"><ele>1546.93</ele></trkpt>
            <trkpt lat="44.968872" lon="6.109135"><ele>1551.26</ele></trkpt>
            <trkpt lat="44.968803" lon="6.109002"><ele>1553.49</ele></trkpt>
            <trkpt lat="44.968776" lon="6.108882"><ele>1555.59</ele></trkpt>
            <trkpt lat="44.968766" lon="6.108776"><ele>1558.33</ele></trkpt>
            <trkpt lat="44.968789" lon="6.108665"><ele>1560.04</ele></trkpt>
            <trkpt lat="44.968837" lon="6.108594"><ele>1561.93</ele></trkpt>
            <trkpt lat="44.968893" lon="6.108519"><ele>1567.36</ele></trkpt>
            <trkpt lat="44.968917" lon="6.108401"><ele>1568.74</ele></trkpt>
            <trkpt lat="44.9689" lon="6.108277"><ele>1571.59</ele></trkpt>
            <trkpt lat="44.968874" lon="6.108163"><ele>1572.97</ele></trkpt>
            <trkpt lat="44.968847" lon="6.108018"><ele>1577.91</ele></trkpt>
            <trkpt lat="44.96878" lon="6.107878"><ele>1580.24</ele></trkpt>
            <trkpt lat="44.96871" lon="6.107777"><ele>1581.36</ele></trkpt>
            <trkpt lat="44.968671" lon="6.10769"><ele>1583.46</ele></trkpt>
            <trkpt lat="44.968732" lon="6.107655"><ele>1587.03</ele></trkpt>
            <trkpt lat="44.968658" lon="6.107551"><ele>1588</ele></trkpt>
            <trkpt lat="44.96863" lon="6.107346"><ele>1594.28</ele></trkpt>
            <trkpt lat="44.968543" lon="6.107059"><ele>1597.76</ele></trkpt>
            <trkpt lat="44.968439" lon="6.106834"><ele>1601.76</ele></trkpt>
            <trkpt lat="44.968356" lon="6.106667"><ele>1604.95</ele></trkpt>
            <trkpt lat="44.968277" lon="6.106527"><ele>1608.52</ele></trkpt>
            <trkpt lat="44.968162" lon="6.106335"><ele>1615.55</ele></trkpt>
            <trkpt lat="44.968183" lon="6.106231"><ele>1618.28</ele></trkpt>
            <trkpt lat="44.968071" lon="6.106133"><ele>1620.98</ele></trkpt>
            <trkpt lat="44.967941" lon="6.106002"><ele>1624.33</ele></trkpt>
            <trkpt lat="44.967905" lon="6.105908"><ele>1629.84</ele></trkpt>
            <trkpt lat="44.967836" lon="6.105887"><ele>1627.55</ele></trkpt>
            <trkpt lat="44.967818" lon="6.105794"><ele>1631.26</ele></trkpt>
            <trkpt lat="44.967854" lon="6.1057"><ele>1635.02</ele></trkpt>
            <trkpt lat="44.967941" lon="6.105646"><ele>1640.42</ele></trkpt>
            <trkpt lat="44.967953" lon="6.1056"><ele>1642.7</ele></trkpt>
            <trkpt lat="44.967806" lon="6.105466"><ele>1645.52</ele></trkpt>
            <trkpt lat="44.967704" lon="6.10537"><ele>1647.44</ele></trkpt>
            <trkpt lat="44.967698" lon="6.105291"><ele>1651.66</ele></trkpt>
            <trkpt lat="44.967626" lon="6.105236"><ele>1651.78</ele></trkpt>
            <trkpt lat="44.967482" lon="6.105053"><ele>1658.44</ele></trkpt>
            <trkpt lat="44.967297" lon="6.10499"><ele>1656.91</ele></trkpt>
            <trkpt lat="44.967211" lon="6.104915"><ele>1657.64</ele></trkpt>
            <trkpt lat="44.967147" lon="6.104898"><ele>1655.93</ele></trkpt>
            <trkpt lat="44.966992" lon="6.104763"><ele>1656.17</ele></trkpt>
            <trkpt lat="44.966939" lon="6.104676"><ele>1660.55</ele></trkpt>
            <trkpt lat="44.966836" lon="6.104526"><ele>1667.98</ele></trkpt>
            <trkpt lat="44.966652" lon="6.104491"><ele>1666.2</ele></trkpt>
            <trkpt lat="44.96655" lon="6.104327"><ele>1670.53</ele></trkpt>
            <trkpt lat="44.966416" lon="6.104131"><ele>1675.2</ele></trkpt>
            <trkpt lat="44.966361" lon="6.103967"><ele>1679.71</ele></trkpt>
            <trkpt lat="44.966341" lon="6.10393"><ele>1679.89</ele></trkpt>
            <trkpt lat="44.96618" lon="6.103868"><ele>1679.62</ele></trkpt>
            <trkpt lat="44.966012" lon="6.103797"><ele>1681.58</ele></trkpt>
            <trkpt lat="44.96592" lon="6.10367"><ele>1684.17</ele></trkpt>
            <trkpt lat="44.96579" lon="6.103572"><ele>1684.58</ele></trkpt>
            <trkpt lat="44.965746" lon="6.103445"><ele>1688.49</ele></trkpt>
            <trkpt lat="44.96559" lon="6.103338"><ele>1690.34</ele></trkpt>
            <trkpt lat="44.965487" lon="6.103336"><ele>1689.38</ele></trkpt>
            <trkpt lat="44.965376" lon="6.103294"><ele>1690.16</ele></trkpt>
            <trkpt lat="44.965254" lon="6.103159"><ele>1694.73</ele></trkpt>
            <trkpt lat="44.965195" lon="6.103109"><ele>1695.21</ele></trkpt>
            <trkpt lat="44.96515" lon="6.103103"><ele>1695.67</ele></trkpt>
            <trkpt lat="44.965088" lon="6.103145"><ele>1695.16</ele></trkpt>
            <trkpt lat="44.965043" lon="6.103197"><ele>1694.73</ele></trkpt>
            <trkpt lat="44.964956" lon="6.103218"><ele>1694.98</ele></trkpt>
            <trkpt lat="44.964841" lon="6.103247"><ele>1696.8</ele></trkpt>
            <trkpt lat="44.964733" lon="6.103201"><ele>1699.31</ele></trkpt>
            <trkpt lat="44.964619" lon="6.103162"><ele>1703.15</ele></trkpt>
            <trkpt lat="44.964551" lon="6.103201"><ele>1703.98</ele></trkpt>
            <trkpt lat="44.964402" lon="6.103217"><ele>1704.85</ele></trkpt>
            <trkpt lat="44.964298" lon="6.103033"><ele>1709.55</ele></trkpt>
            <trkpt lat="44.964299" lon="6.102958"><ele>1710.58</ele></trkpt>
            <trkpt lat="44.96422" lon="6.102866"><ele>1711.92</ele></trkpt>
            <trkpt lat="44.964184" lon="6.102823"><ele>1712.68</ele></trkpt>
            <trkpt lat="44.964123" lon="6.102686"><ele>1718.16</ele></trkpt>
            <trkpt lat="44.964018" lon="6.102578"><ele>1720.63</ele></trkpt>
            <trkpt lat="44.963995" lon="6.102516"><ele>1724.59</ele></trkpt>
            <trkpt lat="44.963876" lon="6.102466"><ele>1726.69</ele></trkpt>
            <trkpt lat="44.963751" lon="6.102336"><ele>1733.33</ele></trkpt>
            <trkpt lat="44.963713" lon="6.102251"><ele>1736.5</ele></trkpt>
            <trkpt lat="44.963668" lon="6.102229"><ele>1736.59</ele></trkpt>
            <trkpt lat="44.963637" lon="6.102147"><ele>1738.83</ele></trkpt>
            <trkpt lat="44.963561" lon="6.101973"><ele>1742.66</ele></trkpt>
            <trkpt lat="44.963464" lon="6.101844"><ele>1745.27</ele></trkpt>
            <trkpt lat="44.96342" lon="6.101748"><ele>1747.74</ele></trkpt>
            <trkpt lat="44.963329" lon="6.10167"><ele>1748.77</ele></trkpt>
            <trkpt lat="44.963302" lon="6.101564"><ele>1751.54</ele></trkpt>
            <trkpt lat="44.963291" lon="6.101463"><ele>1755.41</ele></trkpt>
            <trkpt lat="44.963186" lon="6.101385"><ele>1757.02</ele></trkpt>
            <trkpt lat="44.963113" lon="6.101316"><ele>1760.53</ele></trkpt>
            <trkpt lat="44.963048" lon="6.101265"><ele>1763.37</ele></trkpt>
            <trkpt lat="44.963121" lon="6.101169"><ele>1766.24</ele></trkpt>
            <trkpt lat="44.963041" lon="6.10113"><ele>1768.72</ele></trkpt>
            <trkpt lat="44.962992" lon="6.101159"><ele>1767.39</ele></trkpt>
            <trkpt lat="44.962951" lon="6.101141"><ele>1769.42</ele></trkpt>
            <trkpt lat="44.962895" lon="6.101163"><ele>1768.08</ele></trkpt>
            <trkpt lat="44.962739" lon="6.101126"><ele>1769.13</ele></trkpt>
            <trkpt lat="44.962615" lon="6.100966"><ele>1773.72</ele></trkpt>
            <trkpt lat="44.962563" lon="6.100952"><ele>1773.57</ele></trkpt>
            <trkpt lat="44.962425" lon="6.100835"><ele>1776.14</ele></trkpt>
            <trkpt lat="44.962337" lon="6.100667"><ele>1779.55</ele></trkpt>
            <trkpt lat="44.962133" lon="6.100438"><ele>1783.4</ele></trkpt>
            <trkpt lat="44.961775" lon="6.100274"><ele>1786.02</ele></trkpt>
            <trkpt lat="44.961466" lon="6.100169"><ele>1783.54</ele></trkpt>
            <trkpt lat="44.961299" lon="6.099955"><ele>1789.7</ele></trkpt>
            <trkpt lat="44.961126" lon="6.09982"><ele>1791.05</ele></trkpt>
            <trkpt lat="44.961087" lon="6.099766"><ele>1793.01</ele></trkpt>
            <trkpt lat="44.961016" lon="6.099762"><ele>1791.91</ele></trkpt>
            <trkpt lat="44.960961" lon="6.099737"><ele>1791.53</ele></trkpt>
            <trkpt lat="44.960925" lon="6.099724"><ele>1792.27</ele></trkpt>
            <trkpt lat="44.960865" lon="6.099759"><ele>1791.05</ele></trkpt>
            <trkpt lat="44.960691" lon="6.09983"><ele>1789.6</ele></trkpt>
            <trkpt lat="44.960607" lon="6.099894"><ele>1789.32</ele></trkpt>
            <trkpt lat="44.960529" lon="6.099961"><ele>1790.44</ele></trkpt>
            <trkpt lat="44.960399" lon="6.099959"><ele>1793.17</ele></trkpt>
            <trkpt lat="44.960309" lon="6.099939"><ele>1795.59</ele></trkpt>
            <trkpt lat="44.96017" lon="6.099687"><ele>1799.57</ele></trkpt>
            <trkpt lat="44.960073" lon="6.099557"><ele>1803.15</ele></trkpt>
            <trkpt lat="44.960042" lon="6.09948"><ele>1804.44</ele></trkpt>
            <trkpt lat="44.959811" lon="6.099459"><ele>1809.99</ele></trkpt>
            <trkpt lat="44.959718" lon="6.099283"><ele>1811.19</ele></trkpt>
            <trkpt lat="44.959697" lon="6.099202"><ele>1812.75</ele></trkpt>
            <trkpt lat="44.95963" lon="6.099104"><ele>1814.46</ele></trkpt>
            <trkpt lat="44.95948" lon="6.099121"><ele>1823.08</ele></trkpt>
            <trkpt lat="44.959395" lon="6.099312"><ele>1828.83</ele></trkpt>
            <trkpt lat="44.95935" lon="6.099209"><ele>1830.68</ele></trkpt>
            <trkpt lat="44.959202" lon="6.099197"><ele>1837.55</ele></trkpt>
            <trkpt lat="44.959208" lon="6.099276"><ele>1839.19</ele></trkpt>
            <trkpt lat="44.959178" lon="6.099311"><ele>1842.46</ele></trkpt>
            <trkpt lat="44.959151" lon="6.099263"><ele>1841.31</ele></trkpt>
            <trkpt lat="44.959126" lon="6.099263"><ele>1843.54</ele></trkpt>
            <trkpt lat="44.959125" lon="6.099308"><ele>1844.76</ele></trkpt>
            <trkpt lat="44.959073" lon="6.09933"><ele>1847.15</ele></trkpt>
            <trkpt lat="44.959094" lon="6.099398"><ele>1850.27</ele></trkpt>
            <trkpt lat="44.959146" lon="6.09949"><ele>1848.87</ele></trkpt>
            <trkpt lat="44.959102" lon="6.099501"><ele>1851.26</ele></trkpt>
            <trkpt lat="44.959032" lon="6.099438"><ele>1853.98</ele></trkpt>
            <trkpt lat="44.959011" lon="6.099455"><ele>1856.25</ele></trkpt>
            <trkpt lat="44.959058" lon="6.099591"><ele>1859.46</ele></trkpt>
            <trkpt lat="44.959107" lon="6.099806"><ele>1861.77</ele></trkpt>
            <trkpt lat="44.959168" lon="6.099966"><ele>1863.75</ele></trkpt>
            <trkpt lat="44.959169" lon="6.100118"><ele>1868.81</ele></trkpt>
            <trkpt lat="44.959241" lon="6.100239"><ele>1867.24</ele></trkpt>
            <trkpt lat="44.959246" lon="6.100302"><ele>1869.41</ele></trkpt>
            <trkpt lat="44.959224" lon="6.100319"><ele>1871.65</ele></trkpt>
            <trkpt lat="44.95919" lon="6.10027"><ele>1870.58</ele></trkpt>
            <trkpt lat="44.95917" lon="6.100329"><ele>1873.69</ele></trkpt>
            <trkpt lat="44.959139" lon="6.1003"><ele>1875.81</ele></trkpt>
            <trkpt lat="44.959051" lon="6.100328"><ele>1880.27</ele></trkpt>
            <trkpt lat="44.959068" lon="6.100541"><ele>1883.53</ele></trkpt>
            <trkpt lat="44.959052" lon="6.10057"><ele>1886.96</ele></trkpt>
            <trkpt lat="44.958959" lon="6.100519"><ele>1889.58</ele></trkpt>
            <trkpt lat="44.958939" lon="6.100571"><ele>1890.85</ele></trkpt>
            <trkpt lat="44.958943" lon="6.100721"><ele>1896.76</ele></trkpt>
            <trkpt lat="44.958989" lon="6.100765"><ele>1895.72</ele></trkpt>
            <trkpt lat="44.958972" lon="6.100857"><ele>1900.74</ele></trkpt>
            <trkpt lat="44.958916" lon="6.100829"><ele>1901.92</ele></trkpt>
            <trkpt lat="44.958897" lon="6.100873"><ele>1903.45</ele></trkpt>
            <trkpt lat="44.9589" lon="6.101059"><ele>1909.52</ele></trkpt>
            <trkpt lat="44.95893" lon="6.101183"><ele>1914.61</ele></trkpt>
            <trkpt lat="44.958846" lon="6.101133"><ele>1916.21</ele></trkpt>
            <trkpt lat="44.958911" lon="6.101253"><ele>1918.3</ele></trkpt>
            <trkpt lat="44.958879" lon="6.101274"><ele>1923.89</ele></trkpt>
            <trkpt lat="44.9589" lon="6.101427"><ele>1925.27</ele></trkpt>
            <trkpt lat="44.958781" lon="6.101352"><ele>1932.18</ele></trkpt>
            <trkpt lat="44.958839" lon="6.101639"><ele>1939.74</ele></trkpt>
            <trkpt lat="44.958736" lon="6.101604"><ele>1945.83</ele></trkpt>
            <trkpt lat="44.958748" lon="6.101965"><ele>1953.95</ele></trkpt>
            <trkpt lat="44.958618" lon="6.102164"><ele>1958.3</ele></trkpt>
            <trkpt lat="44.95849" lon="6.102285"><ele>1961.17</ele></trkpt>
            <trkpt lat="44.958449" lon="6.102357"><ele>1961.02</ele></trkpt>
            <trkpt lat="44.958428" lon="6.102454"><ele>1958.65</ele></trkpt>
            <trkpt lat="44.95838" lon="6.102524"><ele>1959.95</ele></trkpt>
            <trkpt lat="44.958344" lon="6.102491"><ele>1963.69</ele></trkpt>
            <trkpt lat="44.958339" lon="6.102441"><ele>1964.59</ele></trkpt>
            <trkpt lat="44.95832" lon="6.102436"><ele>1967.39</ele></trkpt>
            <trkpt lat="44.958267" lon="6.102506"><ele>1969.11</ele></trkpt>
            <trkpt lat="44.958194" lon="6.102503"><ele>1973.89</ele></trkpt>
            <trkpt lat="44.958187" lon="6.102456"><ele>1974.97</ele></trkpt>
            <trkpt lat="44.958228" lon="6.102401"><ele>1973.69</ele></trkpt>
            <trkpt lat="44.9582" lon="6.10236"><ele>1977.47</ele></trkpt>
            <trkpt lat="44.958077" lon="6.102474"><ele>1979.44</ele></trkpt>
            <trkpt lat="44.957987" lon="6.102489"><ele>1982.46</ele></trkpt>
            <trkpt lat="44.957938" lon="6.102518"><ele>1986.57</ele></trkpt>
            <trkpt lat="44.957882" lon="6.1025"><ele>1988.57</ele></trkpt>
            <trkpt lat="44.957861" lon="6.102447"><ele>1989.91</ele></trkpt>
            <trkpt lat="44.95784" lon="6.102485"><ele>1990.38</ele></trkpt>
            <trkpt lat="44.957798" lon="6.102504"><ele>1992.07</ele></trkpt>
            <trkpt lat="44.957836" lon="6.102248"><ele>2000.44</ele></trkpt>
            <trkpt lat="44.957898" lon="6.102017"><ele>2006.74</ele></trkpt>
            <trkpt lat="44.957913" lon="6.101878"><ele>2008.35</ele></trkpt>
            <trkpt lat="44.957872" lon="6.101905"><ele>2010.87</ele></trkpt>
            <trkpt lat="44.957781" lon="6.102026"><ele>2011.1</ele></trkpt>
            <trkpt lat="44.95768" lon="6.10208"><ele>2016.71</ele></trkpt>
            <trkpt lat="44.957712" lon="6.101809"><ele>2023.26</ele></trkpt>
            <trkpt lat="44.957632" lon="6.101864"><ele>2027.09</ele></trkpt>
            <trkpt lat="44.957646" lon="6.101682"><ele>2028.01</ele></trkpt>
            <trkpt lat="44.957599" lon="6.101715"><ele>2032.77</ele></trkpt>
            <trkpt lat="44.957522" lon="6.101853"><ele>2031.89</ele></trkpt>
            <trkpt lat="44.957468" lon="6.101855"><ele>2036.44</ele></trkpt>
            <trkpt lat="44.957445" lon="6.10177"><ele>2038.64</ele></trkpt>
            <trkpt lat="44.957439" lon="6.101633"><ele>2041.62</ele></trkpt>
            <trkpt lat="44.957384" lon="6.101607"><ele>2046.72</ele></trkpt>
            <trkpt lat="44.957351" lon="6.101717"><ele>2043.78</ele></trkpt>
            <trkpt lat="44.957292" lon="6.101749"><ele>2046.61</ele></trkpt>
            <trkpt lat="44.957283" lon="6.101654"><ele>2049.74</ele></trkpt>
            <trkpt lat="44.957248" lon="6.101641"><ele>2052.1</ele></trkpt>
            <trkpt lat="44.957172" lon="6.101761"><ele>2050.86</ele></trkpt>
            <trkpt lat="44.95706" lon="6.1019"><ele>2054.45</ele></trkpt>
            <trkpt lat="44.956957" lon="6.101917"><ele>2058.86</ele></trkpt>
            <trkpt lat="44.956884" lon="6.101975"><ele>2061.22</ele></trkpt>
            <trkpt lat="44.95682" lon="6.101947"><ele>2066.22</ele></trkpt>
            <trkpt lat="44.956819" lon="6.10191"><ele>2067.52</ele></trkpt>
            <trkpt lat="44.95686" lon="6.101866"><ele>2066.98</ele></trkpt>
            <trkpt lat="44.956874" lon="6.101802"><ele>2066.63</ele></trkpt>
            <trkpt lat="44.956859" lon="6.101769"><ele>2070.59</ele></trkpt>
            <trkpt lat="44.956665" lon="6.101809"><ele>2076.05</ele></trkpt>
            <trkpt lat="44.956658" lon="6.101763"><ele>2077.35</ele></trkpt>
            <trkpt lat="44.956681" lon="6.101698"><ele>2080.16</ele></trkpt>
            <trkpt lat="44.956653" lon="6.101656"><ele>2082.7</ele></trkpt>
            <trkpt lat="44.956532" lon="6.101718"><ele>2082.87</ele></trkpt>
            <trkpt lat="44.956514" lon="6.101688"><ele>2085.2</ele></trkpt>
            <trkpt lat="44.956556" lon="6.101587"><ele>2085.78</ele></trkpt>
            <trkpt lat="44.956523" lon="6.101564"><ele>2088.04</ele></trkpt>
            <trkpt lat="44.956537" lon="6.101514"><ele>2088.36</ele></trkpt>
            <trkpt lat="44.956606" lon="6.10147"><ele>2089.14</ele></trkpt>
            <trkpt lat="44.956699" lon="6.101333"><ele>2089.27</ele></trkpt>
            <trkpt lat="44.956618" lon="6.101291"><ele>2092.81</ele></trkpt>
            <trkpt lat="44.956456" lon="6.101274"><ele>2098.13</ele></trkpt>
            <trkpt lat="44.956334" lon="6.101314"><ele>2102.74</ele></trkpt>
            <trkpt lat="44.956235" lon="6.101346"><ele>2104.09</ele></trkpt>
            <trkpt lat="44.95617" lon="6.101314"><ele>2108.22</ele></trkpt>
            <trkpt lat="44.95612" lon="6.101355"><ele>2108.24</ele></trkpt>
            <trkpt lat="44.956047" lon="6.101455"><ele>2109.18</ele></trkpt>
            <trkpt lat="44.95602" lon="6.101437"><ele>2109.89</ele></trkpt>
            <trkpt lat="44.956003" lon="6.101363"><ele>2112.25</ele></trkpt>
            <trkpt lat="44.955887" lon="6.101308"><ele>2116.66</ele></trkpt>
            <trkpt lat="44.955834" lon="6.101207"><ele>2120.43</ele></trkpt>
            <trkpt lat="44.955959" lon="6.101034"><ele>2123.57</ele></trkpt>
            <trkpt lat="44.955997" lon="6.101006"><ele>2124.09</ele></trkpt>
            <trkpt lat="44.956057" lon="6.100894"><ele>2124.56</ele></trkpt>
            <trkpt lat="44.956104" lon="6.100829"><ele>2125.48</ele></trkpt>
            <trkpt lat="44.956106" lon="6.100767"><ele>2126.4</ele></trkpt>
            <trkpt lat="44.956037" lon="6.100664"><ele>2130.71</ele></trkpt>
            <trkpt lat="44.955992" lon="6.10037"><ele>2133.89</ele></trkpt>
            <trkpt lat="44.955988" lon="6.100045"><ele>2138.56</ele></trkpt>
            <trkpt lat="44.956004" lon="6.099859"><ele>2140.64</ele></trkpt>
            <trkpt lat="44.956057" lon="6.099608"><ele>2142.85</ele></trkpt>
            <trkpt lat="44.956141" lon="6.099273"><ele>2143.3</ele></trkpt>
            <trkpt lat="44.9561" lon="6.098971"><ele>2143.38</ele></trkpt>
            <trkpt lat="44.956052" lon="6.098886"><ele>2142.42</ele></trkpt>
            <trkpt lat="44.955858" lon="6.098752"><ele>2142.74</ele></trkpt>
            <trkpt lat="44.955668" lon="6.098545"><ele>2144.13</ele></trkpt>
            <trkpt lat="44.955645" lon="6.098516"><ele>2144.9</ele></trkpt>
            <trkpt lat="44.955514" lon="6.098447"><ele>2144.48</ele></trkpt>
            <trkpt lat="44.955352" lon="6.098314"><ele>2145.99</ele></trkpt>
            <trkpt lat="44.955275" lon="6.098311"><ele>2147.06</ele></trkpt>
            <trkpt lat="44.955135" lon="6.098265"><ele>2148.1</ele></trkpt>
            <trkpt lat="44.955135" lon="6.098265"><ele>2148.1</ele></trkpt>
            <trkpt lat="44.954975" lon="6.098118"><ele>2149.59</ele></trkpt>
            <trkpt lat="44.954974" lon="6.09812"><ele>2149.59</ele></trkpt>
            <trkpt lat="44.954974" lon="6.09812"><ele>2149.59</ele></trkpt>
            <trkpt lat="44.954975" lon="6.098118"><ele>2149.59</ele></trkpt>
            <trkpt lat="44.954751" lon="6.097912"><ele>2149.87</ele></trkpt>
            <trkpt lat="44.95451" lon="6.097468"><ele>2151.26</ele></trkpt>
            <trkpt lat="44.954432" lon="6.097348"><ele>2149.74</ele></trkpt>
            <trkpt lat="44.954337" lon="6.097238"><ele>2146.74</ele></trkpt>
            <trkpt lat="44.954204" lon="6.097202"><ele>2143.68</ele></trkpt>
            <trkpt lat="44.953859" lon="6.097126"><ele>2133.11</ele></trkpt>
            <trkpt lat="44.95368" lon="6.097091"><ele>2127.36</ele></trkpt>
            <trkpt lat="44.953427" lon="6.097171"><ele>2121.86</ele></trkpt>
            <trkpt lat="44.953283" lon="6.09723"><ele>2120.51</ele></trkpt>
            <trkpt lat="44.953283" lon="6.09723"><ele>2120.51</ele></trkpt>
            <trkpt lat="44.953104" lon="6.097301"><ele>2118.14</ele></trkpt>
            <trkpt lat="44.953012" lon="6.097228"><ele>2115.46</ele></trkpt>
            <trkpt lat="44.95289" lon="6.09713"><ele>2111.59</ele></trkpt>
            <trkpt lat="44.952295" lon="6.096547"><ele>2104.03</ele></trkpt>
            <trkpt lat="44.952204" lon="6.096413"><ele>2103.82</ele></trkpt>
            <trkpt lat="44.952203" lon="6.096414"><ele>2103.82</ele></trkpt>
            <trkpt lat="44.952203" lon="6.096414"><ele>2103.82</ele></trkpt>
            <trkpt lat="44.952204" lon="6.096413"><ele>2103.82</ele></trkpt>
            <trkpt lat="44.951993" lon="6.096106"><ele>2104.43</ele></trkpt>
            <trkpt lat="44.951864" lon="6.095935"><ele>2105.1</ele></trkpt>
            <trkpt lat="44.951719" lon="6.095824"><ele>2103.82</ele></trkpt>
            <trkpt lat="44.951543" lon="6.095728"><ele>2103.18</ele></trkpt>
            <trkpt lat="44.951301" lon="6.095632"><ele>2103.45</ele></trkpt>
            <trkpt lat="44.951125" lon="6.095381"><ele>2102.9</ele></trkpt>
            <trkpt lat="44.951094" lon="6.095249"><ele>2100.57</ele></trkpt>
            <trkpt lat="44.951097" lon="6.095141"><ele>2099.66</ele></trkpt>
            <trkpt lat="44.951097" lon="6.095141"><ele>2099.66</ele></trkpt>
            <trkpt lat="44.951067" lon="6.095126"><ele>2098.52</ele></trkpt>
            <trkpt lat="44.951029" lon="6.095108"><ele>2099.1</ele></trkpt>
            <trkpt lat="44.951001" lon="6.095143"><ele>2099.13</ele></trkpt>
            <trkpt lat="44.951011" lon="6.095159"><ele>2099.13</ele></trkpt>
            <trkpt lat="44.951011" lon="6.095159"><ele>2099.13</ele></trkpt>
            <trkpt lat="44.951001" lon="6.095143"><ele>2099.13</ele></trkpt>
            <trkpt lat="44.951029" lon="6.095108"><ele>2099.1</ele></trkpt>
            <trkpt lat="44.951067" lon="6.095126"><ele>2098.52</ele></trkpt>
            <trkpt lat="44.951097" lon="6.095141"><ele>2099.66</ele></trkpt>
            <trkpt lat="44.951097" lon="6.095141"><ele>2099.66</ele></trkpt>
            <trkpt lat="44.951094" lon="6.095249"><ele>2100.57</ele></trkpt>
            <trkpt lat="44.951125" lon="6.095381"><ele>2102.9</ele></trkpt>
            <trkpt lat="44.951301" lon="6.095632"><ele>2103.45</ele></trkpt>
            <trkpt lat="44.951543" lon="6.095728"><ele>2103.18</ele></trkpt>
            <trkpt lat="44.951719" lon="6.095824"><ele>2103.82</ele></trkpt>
            <trkpt lat="44.951864" lon="6.095935"><ele>2105.1</ele></trkpt>
            <trkpt lat="44.951993" lon="6.096106"><ele>2104.43</ele></trkpt>
            <trkpt lat="44.952295" lon="6.096547"><ele>2104.03</ele></trkpt>
            <trkpt lat="44.95289" lon="6.09713"><ele>2111.59</ele></trkpt>
            <trkpt lat="44.953012" lon="6.097228"><ele>2115.46</ele></trkpt>
            <trkpt lat="44.953104" lon="6.097301"><ele>2118.14</ele></trkpt>
            <trkpt lat="44.953283" lon="6.09723"><ele>2120.51</ele></trkpt>
            <trkpt lat="44.953283" lon="6.09723"><ele>2120.51</ele></trkpt>
            <trkpt lat="44.953427" lon="6.097171"><ele>2121.86</ele></trkpt>
            <trkpt lat="44.95368" lon="6.097091"><ele>2127.36</ele></trkpt>
            <trkpt lat="44.953859" lon="6.097126"><ele>2133.11</ele></trkpt>
            <trkpt lat="44.954204" lon="6.097202"><ele>2143.68</ele></trkpt>
            <trkpt lat="44.954337" lon="6.097238"><ele>2146.74</ele></trkpt>
            <trkpt lat="44.954432" lon="6.097348"><ele>2149.74</ele></trkpt>
            <trkpt lat="44.95451" lon="6.097468"><ele>2151.26</ele></trkpt>
            <trkpt lat="44.954751" lon="6.097912"><ele>2149.87</ele></trkpt>
            <trkpt lat="44.955135" lon="6.098265"><ele>2148.1</ele></trkpt>
            <trkpt lat="44.955135" lon="6.098265"><ele>2148.1</ele></trkpt>
            <trkpt lat="44.955275" lon="6.098311"><ele>2147.06</ele></trkpt>
            <trkpt lat="44.955352" lon="6.098314"><ele>2145.99</ele></trkpt>
            <trkpt lat="44.955514" lon="6.098447"><ele>2144.48</ele></trkpt>
            <trkpt lat="44.955645" lon="6.098516"><ele>2144.9</ele></trkpt>
            <trkpt lat="44.955668" lon="6.098545"><ele>2144.13</ele></trkpt>
            <trkpt lat="44.955858" lon="6.098752"><ele>2142.74</ele></trkpt>
            <trkpt lat="44.956052" lon="6.098886"><ele>2142.42</ele></trkpt>
            <trkpt lat="44.9561" lon="6.098971"><ele>2143.38</ele></trkpt>
            <trkpt lat="44.956141" lon="6.099273"><ele>2143.3</ele></trkpt>
            <trkpt lat="44.956057" lon="6.099608"><ele>2142.85</ele></trkpt>
            <trkpt lat="44.956004" lon="6.099859"><ele>2140.64</ele></trkpt>
            <trkpt lat="44.955988" lon="6.100045"><ele>2138.56</ele></trkpt>
            <trkpt lat="44.955992" lon="6.10037"><ele>2133.89</ele></trkpt>
            <trkpt lat="44.956037" lon="6.100664"><ele>2130.71</ele></trkpt>
            <trkpt lat="44.956106" lon="6.100767"><ele>2126.4</ele></trkpt>
            <trkpt lat="44.956104" lon="6.100829"><ele>2125.48</ele></trkpt>
            <trkpt lat="44.956057" lon="6.100894"><ele>2124.56</ele></trkpt>
            <trkpt lat="44.955997" lon="6.101006"><ele>2124.09</ele></trkpt>
            <trkpt lat="44.955959" lon="6.101034"><ele>2123.57</ele></trkpt>
            <trkpt lat="44.955834" lon="6.101207"><ele>2120.43</ele></trkpt>
            <trkpt lat="44.955887" lon="6.101308"><ele>2116.66</ele></trkpt>
            <trkpt lat="44.956003" lon="6.101363"><ele>2112.25</ele></trkpt>
            <trkpt lat="44.95602" lon="6.101437"><ele>2109.89</ele></trkpt>
            <trkpt lat="44.956047" lon="6.101455"><ele>2109.18</ele></trkpt>
            <trkpt lat="44.95612" lon="6.101355"><ele>2108.24</ele></trkpt>
            <trkpt lat="44.95617" lon="6.101314"><ele>2108.22</ele></trkpt>
            <trkpt lat="44.956235" lon="6.101346"><ele>2104.09</ele></trkpt>
            <trkpt lat="44.956334" lon="6.101314"><ele>2102.74</ele></trkpt>
            <trkpt lat="44.956456" lon="6.101274"><ele>2098.13</ele></trkpt>
            <trkpt lat="44.956618" lon="6.101291"><ele>2092.81</ele></trkpt>
            <trkpt lat="44.956699" lon="6.101333"><ele>2089.27</ele></trkpt>
            <trkpt lat="44.956606" lon="6.10147"><ele>2089.14</ele></trkpt>
            <trkpt lat="44.956537" lon="6.101514"><ele>2088.36</ele></trkpt>
            <trkpt lat="44.956523" lon="6.101564"><ele>2088.04</ele></trkpt>
            <trkpt lat="44.956556" lon="6.101587"><ele>2085.78</ele></trkpt>
            <trkpt lat="44.956514" lon="6.101688"><ele>2085.2</ele></trkpt>
            <trkpt lat="44.956532" lon="6.101718"><ele>2082.87</ele></trkpt>
            <trkpt lat="44.956653" lon="6.101656"><ele>2082.7</ele></trkpt>
            <trkpt lat="44.956681" lon="6.101698"><ele>2080.16</ele></trkpt>
            <trkpt lat="44.956658" lon="6.101763"><ele>2077.35</ele></trkpt>
            <trkpt lat="44.956665" lon="6.101809"><ele>2076.05</ele></trkpt>
            <trkpt lat="44.956859" lon="6.101769"><ele>2070.59</ele></trkpt>
            <trkpt lat="44.956874" lon="6.101802"><ele>2066.63</ele></trkpt>
            <trkpt lat="44.95686" lon="6.101866"><ele>2066.98</ele></trkpt>
            <trkpt lat="44.956819" lon="6.10191"><ele>2067.52</ele></trkpt>
            <trkpt lat="44.95682" lon="6.101947"><ele>2066.22</ele></trkpt>
            <trkpt lat="44.956884" lon="6.101975"><ele>2061.22</ele></trkpt>
            <trkpt lat="44.956957" lon="6.101917"><ele>2058.86</ele></trkpt>
            <trkpt lat="44.95706" lon="6.1019"><ele>2054.45</ele></trkpt>
            <trkpt lat="44.957172" lon="6.101761"><ele>2050.86</ele></trkpt>
            <trkpt lat="44.957248" lon="6.101641"><ele>2052.1</ele></trkpt>
            <trkpt lat="44.957283" lon="6.101654"><ele>2049.74</ele></trkpt>
            <trkpt lat="44.957292" lon="6.101749"><ele>2046.61</ele></trkpt>
            <trkpt lat="44.957351" lon="6.101717"><ele>2043.78</ele></trkpt>
            <trkpt lat="44.957384" lon="6.101607"><ele>2046.72</ele></trkpt>
            <trkpt lat="44.957439" lon="6.101633"><ele>2041.62</ele></trkpt>
            <trkpt lat="44.957445" lon="6.10177"><ele>2038.64</ele></trkpt>
            <trkpt lat="44.957468" lon="6.101855"><ele>2036.44</ele></trkpt>
            <trkpt lat="44.957522" lon="6.101853"><ele>2031.89</ele></trkpt>
            <trkpt lat="44.957599" lon="6.101715"><ele>2032.77</ele></trkpt>
            <trkpt lat="44.957646" lon="6.101682"><ele>2028.01</ele></trkpt>
            <trkpt lat="44.957632" lon="6.101864"><ele>2027.09</ele></trkpt>
            <trkpt lat="44.957712" lon="6.101809"><ele>2023.26</ele></trkpt>
            <trkpt lat="44.95768" lon="6.10208"><ele>2016.71</ele></trkpt>
            <trkpt lat="44.957781" lon="6.102026"><ele>2011.1</ele></trkpt>
            <trkpt lat="44.957872" lon="6.101905"><ele>2010.87</ele></trkpt>
            <trkpt lat="44.957913" lon="6.101878"><ele>2008.35</ele></trkpt>
            <trkpt lat="44.957898" lon="6.102017"><ele>2006.74</ele></trkpt>
            <trkpt lat="44.957836" lon="6.102248"><ele>2000.44</ele></trkpt>
            <trkpt lat="44.957798" lon="6.102504"><ele>1992.07</ele></trkpt>
            <trkpt lat="44.95784" lon="6.102485"><ele>1990.38</ele></trkpt>
            <trkpt lat="44.957861" lon="6.102447"><ele>1989.91</ele></trkpt>
            <trkpt lat="44.957882" lon="6.1025"><ele>1988.57</ele></trkpt>
            <trkpt lat="44.957938" lon="6.102518"><ele>1986.57</ele></trkpt>
            <trkpt lat="44.957987" lon="6.102489"><ele>1982.46</ele></trkpt>
            <trkpt lat="44.958077" lon="6.102474"><ele>1979.44</ele></trkpt>
            <trkpt lat="44.9582" lon="6.10236"><ele>1977.47</ele></trkpt>
            <trkpt lat="44.958228" lon="6.102401"><ele>1973.69</ele></trkpt>
            <trkpt lat="44.958187" lon="6.102456"><ele>1974.97</ele></trkpt>
            <trkpt lat="44.958194" lon="6.102503"><ele>1973.89</ele></trkpt>
            <trkpt lat="44.958267" lon="6.102506"><ele>1969.11</ele></trkpt>
            <trkpt lat="44.95832" lon="6.102436"><ele>1967.39</ele></trkpt>
            <trkpt lat="44.958339" lon="6.102441"><ele>1964.59</ele></trkpt>
            <trkpt lat="44.958344" lon="6.102491"><ele>1963.69</ele></trkpt>
            <trkpt lat="44.95838" lon="6.102524"><ele>1959.95</ele></trkpt>
            <trkpt lat="44.958428" lon="6.102454"><ele>1958.65</ele></trkpt>
            <trkpt lat="44.958449" lon="6.102357"><ele>1961.02</ele></trkpt>
            <trkpt lat="44.95849" lon="6.102285"><ele>1961.17</ele></trkpt>
            <trkpt lat="44.958618" lon="6.102164"><ele>1958.3</ele></trkpt>
            <trkpt lat="44.958748" lon="6.101965"><ele>1953.95</ele></trkpt>
            <trkpt lat="44.958736" lon="6.101604"><ele>1945.83</ele></trkpt>
            <trkpt lat="44.958839" lon="6.101639"><ele>1939.74</ele></trkpt>
            <trkpt lat="44.958781" lon="6.101352"><ele>1932.18</ele></trkpt>
            <trkpt lat="44.9589" lon="6.101427"><ele>1925.27</ele></trkpt>
            <trkpt lat="44.958879" lon="6.101274"><ele>1923.89</ele></trkpt>
            <trkpt lat="44.958911" lon="6.101253"><ele>1918.3</ele></trkpt>
            <trkpt lat="44.958846" lon="6.101133"><ele>1916.21</ele></trkpt>
            <trkpt lat="44.95893" lon="6.101183"><ele>1914.61</ele></trkpt>
            <trkpt lat="44.9589" lon="6.101059"><ele>1909.52</ele></trkpt>
            <trkpt lat="44.958897" lon="6.100873"><ele>1903.45</ele></trkpt>
            <trkpt lat="44.958916" lon="6.100829"><ele>1901.92</ele></trkpt>
            <trkpt lat="44.958972" lon="6.100857"><ele>1900.74</ele></trkpt>
            <trkpt lat="44.958989" lon="6.100765"><ele>1895.72</ele></trkpt>
            <trkpt lat="44.958943" lon="6.100721"><ele>1896.76</ele></trkpt>
            <trkpt lat="44.958939" lon="6.100571"><ele>1890.85</ele></trkpt>
            <trkpt lat="44.958959" lon="6.100519"><ele>1889.58</ele></trkpt>
            <trkpt lat="44.959052" lon="6.10057"><ele>1886.96</ele></trkpt>
            <trkpt lat="44.959068" lon="6.100541"><ele>1883.53</ele></trkpt>
            <trkpt lat="44.959051" lon="6.100328"><ele>1880.27</ele></trkpt>
            <trkpt lat="44.959139" lon="6.1003"><ele>1875.81</ele></trkpt>
            <trkpt lat="44.95917" lon="6.100329"><ele>1873.69</ele></trkpt>
            <trkpt lat="44.95919" lon="6.10027"><ele>1870.58</ele></trkpt>
            <trkpt lat="44.959224" lon="6.100319"><ele>1871.65</ele></trkpt>
            <trkpt lat="44.959246" lon="6.100302"><ele>1869.41</ele></trkpt>
            <trkpt lat="44.959241" lon="6.100239"><ele>1867.24</ele></trkpt>
            <trkpt lat="44.959169" lon="6.100118"><ele>1868.81</ele></trkpt>
            <trkpt lat="44.959168" lon="6.099966"><ele>1863.75</ele></trkpt>
            <trkpt lat="44.959107" lon="6.099806"><ele>1861.77</ele></trkpt>
            <trkpt lat="44.959058" lon="6.099591"><ele>1859.46</ele></trkpt>
            <trkpt lat="44.959011" lon="6.099455"><ele>1856.25</ele></trkpt>
            <trkpt lat="44.959032" lon="6.099438"><ele>1853.98</ele></trkpt>
            <trkpt lat="44.959102" lon="6.099501"><ele>1851.26</ele></trkpt>
            <trkpt lat="44.959146" lon="6.09949"><ele>1848.87</ele></trkpt>
            <trkpt lat="44.959094" lon="6.099398"><ele>1850.27</ele></trkpt>
            <trkpt lat="44.959073" lon="6.09933"><ele>1847.15</ele></trkpt>
            <trkpt lat="44.959125" lon="6.099308"><ele>1844.76</ele></trkpt>
            <trkpt lat="44.959126" lon="6.099263"><ele>1843.54</ele></trkpt>
            <trkpt lat="44.959151" lon="6.099263"><ele>1841.31</ele></trkpt>
            <trkpt lat="44.959178" lon="6.099311"><ele>1842.46</ele></trkpt>
            <trkpt lat="44.959208" lon="6.099276"><ele>1839.19</ele></trkpt>
            <trkpt lat="44.959202" lon="6.099197"><ele>1837.55</ele></trkpt>
            <trkpt lat="44.95935" lon="6.099209"><ele>1830.68</ele></trkpt>
            <trkpt lat="44.959395" lon="6.099312"><ele>1828.83</ele></trkpt>
            <trkpt lat="44.95948" lon="6.099121"><ele>1823.08</ele></trkpt>
            <trkpt lat="44.95963" lon="6.099104"><ele>1814.46</ele></trkpt>
            <trkpt lat="44.959697" lon="6.099202"><ele>1812.75</ele></trkpt>
            <trkpt lat="44.959718" lon="6.099283"><ele>1811.19</ele></trkpt>
            <trkpt lat="44.959811" lon="6.099459"><ele>1809.99</ele></trkpt>
            <trkpt lat="44.960042" lon="6.09948"><ele>1804.44</ele></trkpt>
            <trkpt lat="44.960073" lon="6.099557"><ele>1803.15</ele></trkpt>
            <trkpt lat="44.96017" lon="6.099687"><ele>1799.57</ele></trkpt>
            <trkpt lat="44.960309" lon="6.099939"><ele>1795.59</ele></trkpt>
            <trkpt lat="44.960399" lon="6.099959"><ele>1793.17</ele></trkpt>
            <trkpt lat="44.960529" lon="6.099961"><ele>1790.44</ele></trkpt>
            <trkpt lat="44.960607" lon="6.099894"><ele>1789.32</ele></trkpt>
            <trkpt lat="44.960691" lon="6.09983"><ele>1789.6</ele></trkpt>
            <trkpt lat="44.960865" lon="6.099759"><ele>1791.05</ele></trkpt>
            <trkpt lat="44.960925" lon="6.099724"><ele>1792.27</ele></trkpt>
            <trkpt lat="44.960961" lon="6.099737"><ele>1791.53</ele></trkpt>
            <trkpt lat="44.961016" lon="6.099762"><ele>1791.91</ele></trkpt>
            <trkpt lat="44.961087" lon="6.099766"><ele>1793.01</ele></trkpt>
            <trkpt lat="44.961126" lon="6.09982"><ele>1791.05</ele></trkpt>
            <trkpt lat="44.961299" lon="6.099955"><ele>1789.7</ele></trkpt>
            <trkpt lat="44.961466" lon="6.100169"><ele>1783.54</ele></trkpt>
            <trkpt lat="44.961775" lon="6.100274"><ele>1786.02</ele></trkpt>
            <trkpt lat="44.962133" lon="6.100438"><ele>1783.4</ele></trkpt>
            <trkpt lat="44.962337" lon="6.100667"><ele>1779.55</ele></trkpt>
            <trkpt lat="44.962425" lon="6.100835"><ele>1776.14</ele></trkpt>
            <trkpt lat="44.962563" lon="6.100952"><ele>1773.57</ele></trkpt>
            <trkpt lat="44.962615" lon="6.100966"><ele>1773.72</ele></trkpt>
            <trkpt lat="44.962739" lon="6.101126"><ele>1769.13</ele></trkpt>
            <trkpt lat="44.962895" lon="6.101163"><ele>1768.08</ele></trkpt>
            <trkpt lat="44.962951" lon="6.101141"><ele>1769.42</ele></trkpt>
            <trkpt lat="44.962992" lon="6.101159"><ele>1767.39</ele></trkpt>
            <trkpt lat="44.963041" lon="6.10113"><ele>1768.72</ele></trkpt>
            <trkpt lat="44.963121" lon="6.101169"><ele>1766.24</ele></trkpt>
            <trkpt lat="44.963048" lon="6.101265"><ele>1763.37</ele></trkpt>
            <trkpt lat="44.963113" lon="6.101316"><ele>1760.53</ele></trkpt>
            <trkpt lat="44.963186" lon="6.101385"><ele>1757.02</ele></trkpt>
            <trkpt lat="44.963291" lon="6.101463"><ele>1755.41</ele></trkpt>
            <trkpt lat="44.963296" lon="6.10151"><ele>1753.42</ele></trkpt>
            <trkpt lat="44.963295" lon="6.101511"><ele>1753.42</ele></trkpt>
            <trkpt lat="44.963295" lon="6.101511"><ele>1753.42</ele></trkpt>
            <trkpt lat="44.963296" lon="6.10151"><ele>1753.42</ele></trkpt>
            <trkpt lat="44.963302" lon="6.101564"><ele>1751.54</ele></trkpt>
            <trkpt lat="44.963329" lon="6.10167"><ele>1748.77</ele></trkpt>
            <trkpt lat="44.96342" lon="6.101748"><ele>1747.74</ele></trkpt>
            <trkpt lat="44.963464" lon="6.101844"><ele>1745.27</ele></trkpt>
            <trkpt lat="44.963561" lon="6.101973"><ele>1742.66</ele></trkpt>
            <trkpt lat="44.963637" lon="6.102147"><ele>1738.83</ele></trkpt>
            <trkpt lat="44.963668" lon="6.102229"><ele>1736.59</ele></trkpt>
            <trkpt lat="44.963713" lon="6.102251"><ele>1736.5</ele></trkpt>
            <trkpt lat="44.963751" lon="6.102336"><ele>1733.33</ele></trkpt>
            <trkpt lat="44.963876" lon="6.102466"><ele>1726.69</ele></trkpt>
            <trkpt lat="44.963995" lon="6.102516"><ele>1724.59</ele></trkpt>
            <trkpt lat="44.964018" lon="6.102578"><ele>1720.63</ele></trkpt>
            <trkpt lat="44.964123" lon="6.102686"><ele>1718.16</ele></trkpt>
            <trkpt lat="44.964184" lon="6.102823"><ele>1712.68</ele></trkpt>
            <trkpt lat="44.96422" lon="6.102866"><ele>1711.92</ele></trkpt>
            <trkpt lat="44.964299" lon="6.102958"><ele>1710.58</ele></trkpt>
            <trkpt lat="44.964298" lon="6.103033"><ele>1709.55</ele></trkpt>
            <trkpt lat="44.964402" lon="6.103217"><ele>1704.85</ele></trkpt>
            <trkpt lat="44.964551" lon="6.103201"><ele>1703.98</ele></trkpt>
            <trkpt lat="44.964619" lon="6.103162"><ele>1703.15</ele></trkpt>
            <trkpt lat="44.964733" lon="6.103201"><ele>1699.31</ele></trkpt>
            <trkpt lat="44.964841" lon="6.103247"><ele>1696.8</ele></trkpt>
            <trkpt lat="44.964956" lon="6.103218"><ele>1694.98</ele></trkpt>
            <trkpt lat="44.965043" lon="6.103197"><ele>1694.73</ele></trkpt>
            <trkpt lat="44.965088" lon="6.103145"><ele>1695.16</ele></trkpt>
            <trkpt lat="44.96515" lon="6.103103"><ele>1695.67</ele></trkpt>
            <trkpt lat="44.965195" lon="6.103109"><ele>1695.21</ele></trkpt>
            <trkpt lat="44.965254" lon="6.103159"><ele>1694.73</ele></trkpt>
            <trkpt lat="44.965376" lon="6.103294"><ele>1690.16</ele></trkpt>
            <trkpt lat="44.965487" lon="6.103336"><ele>1689.38</ele></trkpt>
            <trkpt lat="44.96559" lon="6.103338"><ele>1690.34</ele></trkpt>
            <trkpt lat="44.965746" lon="6.103445"><ele>1688.49</ele></trkpt>
            <trkpt lat="44.96579" lon="6.103572"><ele>1684.58</ele></trkpt>
            <trkpt lat="44.96592" lon="6.10367"><ele>1684.17</ele></trkpt>
            <trkpt lat="44.966012" lon="6.103797"><ele>1681.58</ele></trkpt>
            <trkpt lat="44.96618" lon="6.103868"><ele>1679.62</ele></trkpt>
            <trkpt lat="44.966341" lon="6.10393"><ele>1679.89</ele></trkpt>
            <trkpt lat="44.966361" lon="6.103967"><ele>1679.71</ele></trkpt>
            <trkpt lat="44.966416" lon="6.104131"><ele>1675.2</ele></trkpt>
            <trkpt lat="44.96655" lon="6.104327"><ele>1670.53</ele></trkpt>
            <trkpt lat="44.966652" lon="6.104491"><ele>1666.2</ele></trkpt>
            <trkpt lat="44.966836" lon="6.104526"><ele>1667.98</ele></trkpt>
            <trkpt lat="44.966939" lon="6.104676"><ele>1660.55</ele></trkpt>
            <trkpt lat="44.966992" lon="6.104763"><ele>1656.17</ele></trkpt>
            <trkpt lat="44.967147" lon="6.104898"><ele>1655.93</ele></trkpt>
            <trkpt lat="44.967211" lon="6.104915"><ele>1657.64</ele></trkpt>
            <trkpt lat="44.967297" lon="6.10499"><ele>1656.91</ele></trkpt>
            <trkpt lat="44.967482" lon="6.105053"><ele>1658.44</ele></trkpt>
            <trkpt lat="44.967626" lon="6.105236"><ele>1651.78</ele></trkpt>
            <trkpt lat="44.967698" lon="6.105291"><ele>1651.66</ele></trkpt>
            <trkpt lat="44.967704" lon="6.10537"><ele>1647.44</ele></trkpt>
            <trkpt lat="44.967806" lon="6.105466"><ele>1645.52</ele></trkpt>
            <trkpt lat="44.967953" lon="6.1056"><ele>1642.7</ele></trkpt>
            <trkpt lat="44.967941" lon="6.105646"><ele>1640.42</ele></trkpt>
            <trkpt lat="44.967854" lon="6.1057"><ele>1635.02</ele></trkpt>
            <trkpt lat="44.967818" lon="6.105794"><ele>1631.26</ele></trkpt>
            <trkpt lat="44.967836" lon="6.105887"><ele>1627.55</ele></trkpt>
            <trkpt lat="44.967905" lon="6.105908"><ele>1629.84</ele></trkpt>
            <trkpt lat="44.967941" lon="6.106002"><ele>1624.33</ele></trkpt>
            <trkpt lat="44.968071" lon="6.106133"><ele>1620.98</ele></trkpt>
            <trkpt lat="44.968183" lon="6.106231"><ele>1618.28</ele></trkpt>
            <trkpt lat="44.968162" lon="6.106335"><ele>1615.55</ele></trkpt>
            <trkpt lat="44.968277" lon="6.106527"><ele>1608.52</ele></trkpt>
            <trkpt lat="44.968356" lon="6.106667"><ele>1604.95</ele></trkpt>
            <trkpt lat="44.968439" lon="6.106834"><ele>1601.76</ele></trkpt>
            <trkpt lat="44.968543" lon="6.107059"><ele>1597.76</ele></trkpt>
            <trkpt lat="44.96863" lon="6.107346"><ele>1594.28</ele></trkpt>
            <trkpt lat="44.968658" lon="6.107551"><ele>1588</ele></trkpt>
            <trkpt lat="44.968732" lon="6.107655"><ele>1587.03</ele></trkpt>
            <trkpt lat="44.968671" lon="6.10769"><ele>1583.46</ele></trkpt>
            <trkpt lat="44.96871" lon="6.107777"><ele>1581.36</ele></trkpt>
            <trkpt lat="44.96878" lon="6.107878"><ele>1580.24</ele></trkpt>
            <trkpt lat="44.968847" lon="6.108018"><ele>1577.91</ele></trkpt>
            <trkpt lat="44.968874" lon="6.108163"><ele>1572.97</ele></trkpt>
            <trkpt lat="44.9689" lon="6.108277"><ele>1571.59</ele></trkpt>
            <trkpt lat="44.968917" lon="6.108401"><ele>1568.74</ele></trkpt>
            <trkpt lat="44.968893" lon="6.108519"><ele>1567.36</ele></trkpt>
            <trkpt lat="44.968837" lon="6.108594"><ele>1561.93</ele></trkpt>
            <trkpt lat="44.968789" lon="6.108665"><ele>1560.04</ele></trkpt>
            <trkpt lat="44.968766" lon="6.108776"><ele>1558.33</ele></trkpt>
            <trkpt lat="44.968776" lon="6.108882"><ele>1555.59</ele></trkpt>
            <trkpt lat="44.968803" lon="6.109002"><ele>1553.49</ele></trkpt>
            <trkpt lat="44.968872" lon="6.109135"><ele>1551.26</ele></trkpt>
            <trkpt lat="44.968883" lon="6.109279"><ele>1546.93</ele></trkpt>
            <trkpt lat="44.968886" lon="6.109399"><ele>1543.09</ele></trkpt>
            <trkpt lat="44.968907" lon="6.109522"><ele>1541.35</ele></trkpt>
            <trkpt lat="44.968942" lon="6.109734"><ele>1536.47</ele></trkpt>
            <trkpt lat="44.968947" lon="6.109875"><ele>1532.82</ele></trkpt>
            <trkpt lat="44.968932" lon="6.109976"><ele>1530.69</ele></trkpt>
            <trkpt lat="44.96891" lon="6.110068"><ele>1526.46</ele></trkpt>
            <trkpt lat="44.968907" lon="6.110154"><ele>1524.83</ele></trkpt>
            <trkpt lat="44.968942" lon="6.110274"><ele>1524.48</ele></trkpt>
            <trkpt lat="44.969001" lon="6.110497"><ele>1521.71</ele></trkpt>
            <trkpt lat="44.969001" lon="6.110497"><ele>1521.71</ele></trkpt>
            <trkpt lat="44.969041" lon="6.110631"><ele>1518.86</ele></trkpt>
            <trkpt lat="44.969127" lon="6.110702"><ele>1521.01</ele></trkpt>
            <trkpt lat="44.969156" lon="6.110754"><ele>1521.38</ele></trkpt>
            <trkpt lat="44.9692" lon="6.110815"><ele>1520.24</ele></trkpt>
            <trkpt lat="44.969186" lon="6.110851"><ele>1516.6</ele></trkpt>
            <trkpt lat="44.969195" lon="6.110923"><ele>1516.77</ele></trkpt>
            <trkpt lat="44.969131" lon="6.110916"><ele>1513.07</ele></trkpt>
            <trkpt lat="44.969101" lon="6.110979"><ele>1507.85</ele></trkpt>
            <trkpt lat="44.969014" lon="6.111065"><ele>1502.1</ele></trkpt>
            <trkpt lat="44.969004" lon="6.111184"><ele>1498.91</ele></trkpt>
            <trkpt lat="44.969035" lon="6.11131"><ele>1494.2</ele></trkpt>
            <trkpt lat="44.968986" lon="6.111372"><ele>1490.59</ele></trkpt>
            <trkpt lat="44.968969" lon="6.111437"><ele>1489.46</ele></trkpt>
            <trkpt lat="44.968976" lon="6.111492"><ele>1485.5</ele></trkpt>
            <trkpt lat="44.969023" lon="6.11156"><ele>1483.28</ele></trkpt>
            <trkpt lat="44.969273" lon="6.111879"><ele>1471.02</ele></trkpt>
            <trkpt lat="44.969313" lon="6.112002"><ele>1467.28</ele></trkpt>
            <trkpt lat="44.969401" lon="6.112015"><ele>1466.64</ele></trkpt>
            <trkpt lat="44.969381" lon="6.112094"><ele>1462.83</ele></trkpt>
            <trkpt lat="44.969484" lon="6.112142"><ele>1463</ele></trkpt>
            <trkpt lat="44.969484" lon="6.112142"><ele>1463</ele></trkpt>
            <trkpt lat="44.969478" lon="6.112206"><ele>1461.13</ele></trkpt>
            <trkpt lat="44.969442" lon="6.112246"><ele>1458.33</ele></trkpt>
            <trkpt lat="44.969488" lon="6.112311"><ele>1456.66</ele></trkpt>
            <trkpt lat="44.969527" lon="6.112365"><ele>1454.76</ele></trkpt>
            <trkpt lat="44.969634" lon="6.112389"><ele>1458.65</ele></trkpt>
            <trkpt lat="44.969661" lon="6.112441"><ele>1456.08</ele></trkpt>
            <trkpt lat="44.969675" lon="6.112512"><ele>1454.18</ele></trkpt>
            <trkpt lat="44.969689" lon="6.112581"><ele>1450.49</ele></trkpt>
            <trkpt lat="44.969701" lon="6.112676"><ele>1446.85</ele></trkpt>
            <trkpt lat="44.969728" lon="6.112751"><ele>1444.93</ele></trkpt>
            <trkpt lat="44.969755" lon="6.112803"><ele>1445.07</ele></trkpt>
            <trkpt lat="44.969792" lon="6.112841"><ele>1445.36</ele></trkpt>
            <trkpt lat="44.969811" lon="6.11289"><ele>1443.48</ele></trkpt>
            <trkpt lat="44.969857" lon="6.113024"><ele>1440.01</ele></trkpt>
            <trkpt lat="44.969788" lon="6.113007"><ele>1437.79</ele></trkpt>
            <trkpt lat="44.969783" lon="6.113052"><ele>1433.85</ele></trkpt>
            <trkpt lat="44.969785" lon="6.113121"><ele>1430.39</ele></trkpt>
            <trkpt lat="44.969845" lon="6.113209"><ele>1431.45</ele></trkpt>
            <trkpt lat="44.969861" lon="6.113291"><ele>1428.62</ele></trkpt>
            <trkpt lat="44.969874" lon="6.113419"><ele>1428.08</ele></trkpt>
            <trkpt lat="44.969899" lon="6.113461"><ele>1426.7</ele></trkpt>
            <trkpt lat="44.969913" lon="6.113498"><ele>1425.29</ele></trkpt>
            <trkpt lat="44.96991" lon="6.113531"><ele>1423.84</ele></trkpt>
            <trkpt lat="44.969847" lon="6.113501"><ele>1423.3</ele></trkpt>
            <trkpt lat="44.969812" lon="6.113497"><ele>1421.28</ele></trkpt>
            <trkpt lat="44.969773" lon="6.113493"><ele>1419.36</ele></trkpt>
            <trkpt lat="44.969729" lon="6.113512"><ele>1416.49</ele></trkpt>
            <trkpt lat="44.96969" lon="6.113545"><ele>1415.16</ele></trkpt>
            <trkpt lat="44.969736" lon="6.113576"><ele>1415.26</ele></trkpt>
            <trkpt lat="44.96975" lon="6.113612"><ele>1415.48</ele></trkpt>
            <trkpt lat="44.969736" lon="6.113651"><ele>1412.7</ele></trkpt>
            <trkpt lat="44.969707" lon="6.113668"><ele>1412.7</ele></trkpt>
            <trkpt lat="44.969709" lon="6.113718"><ele>1411.39</ele></trkpt>
            <trkpt lat="44.969748" lon="6.113772"><ele>1409.89</ele></trkpt>
            <trkpt lat="44.969781" lon="6.113858"><ele>1407.02</ele></trkpt>
            <trkpt lat="44.969806" lon="6.113891"><ele>1408.15</ele></trkpt>
            <trkpt lat="44.969845" lon="6.113925"><ele>1407.76</ele></trkpt>
            <trkpt lat="44.969889" lon="6.113972"><ele>1407.23</ele></trkpt>
            <trkpt lat="44.969914" lon="6.114022"><ele>1403.8</ele></trkpt>
            <trkpt lat="44.969922" lon="6.114084"><ele>1402.95</ele></trkpt>
            <trkpt lat="44.969918" lon="6.114154"><ele>1399.29</ele></trkpt>
            <trkpt lat="44.969918" lon="6.114196"><ele>1397.44</ele></trkpt>
            <trkpt lat="44.969925" lon="6.1143"><ele>1393.67</ele></trkpt>
            <trkpt lat="44.969956" lon="6.114433"><ele>1387.93</ele></trkpt>
            <trkpt lat="44.96999" lon="6.114493"><ele>1384.29</ele></trkpt>
            <trkpt lat="44.970028" lon="6.114569"><ele>1382.5</ele></trkpt>
            <trkpt lat="44.970044" lon="6.114632"><ele>1378.5</ele></trkpt>
            <trkpt lat="44.970113" lon="6.114686"><ele>1376.67</ele></trkpt>
            <trkpt lat="44.970188" lon="6.114692"><ele>1377.08</ele></trkpt>
            <trkpt lat="44.970259" lon="6.114731"><ele>1375.15</ele></trkpt>
            <trkpt lat="44.970244" lon="6.114769"><ele>1372.96</ele></trkpt>
            <trkpt lat="44.970185" lon="6.114806"><ele>1370.71</ele></trkpt>
            <trkpt lat="44.970265" lon="6.114845"><ele>1368.88</ele></trkpt>
            <trkpt lat="44.970377" lon="6.114823"><ele>1371.51</ele></trkpt>
            <trkpt lat="44.97052" lon="6.114889"><ele>1368.18</ele></trkpt>
            <trkpt lat="44.970661" lon="6.114957"><ele>1367.11</ele></trkpt>
            <trkpt lat="44.970661" lon="6.114957"><ele>1367.11</ele></trkpt>
            <trkpt lat="44.970969" lon="6.115192"><ele>1356.73</ele></trkpt>
            <trkpt lat="44.970896" lon="6.115229"><ele>1352.82</ele></trkpt>
            <trkpt lat="44.970853" lon="6.115258"><ele>1352.18</ele></trkpt>
            <trkpt lat="44.970911" lon="6.115312"><ele>1348.5</ele></trkpt>
            <trkpt lat="44.971061" lon="6.115328"><ele>1350.82</ele></trkpt>
            <trkpt lat="44.971009" lon="6.115422"><ele>1344.88</ele></trkpt>
            <trkpt lat="44.970982" lon="6.11546"><ele>1341.51</ele></trkpt>
            <trkpt lat="44.971119" lon="6.115495"><ele>1342.15</ele></trkpt>
            <trkpt lat="44.97118" lon="6.115549"><ele>1340.34</ele></trkpt>
            <trkpt lat="44.971225" lon="6.115644"><ele>1335.69</ele></trkpt>
            <trkpt lat="44.971279" lon="6.11577"><ele>1327.91</ele></trkpt>
            <trkpt lat="44.971374" lon="6.115856"><ele>1323.74</ele></trkpt>
            <trkpt lat="44.971681" lon="6.116032"><ele>1319.83</ele></trkpt>
            <trkpt lat="44.971832" lon="6.116266"><ele>1307.82</ele></trkpt>
            <trkpt lat="44.971983" lon="6.116499"><ele>1302.33</ele></trkpt>
            <trkpt lat="44.972134" lon="6.116735"><ele>1294.73</ele></trkpt>
            <trkpt lat="44.972197" lon="6.116831"><ele>1294.13</ele></trkpt>
            <trkpt lat="44.972348" lon="6.117065"><ele>1290.02</ele></trkpt>
            <trkpt lat="44.972398" lon="6.117106"><ele>1289.9</ele></trkpt>
            <trkpt lat="44.972397" lon="6.117221"><ele>1285.15</ele></trkpt>
            <trkpt lat="44.972325" lon="6.117263"><ele>1282.23</ele></trkpt>
            <trkpt lat="44.972286" lon="6.117305"><ele>1279.46</ele></trkpt>
            <trkpt lat="44.972376" lon="6.117574"><ele>1274.33</ele></trkpt>
            <trkpt lat="44.972447" lon="6.117803"><ele>1268.5</ele></trkpt>
            <trkpt lat="44.972538" lon="6.118094"><ele>1264.52</ele></trkpt>
            <trkpt lat="44.972639" lon="6.118359"><ele>1259.57</ele></trkpt>
            <trkpt lat="44.972796" lon="6.118428"><ele>1259.57</ele></trkpt>
            <trkpt lat="44.972841" lon="6.11843"><ele>1259.95</ele></trkpt>
            <trkpt lat="44.973066" lon="6.118442"><ele>1261.63</ele></trkpt>
            <trkpt lat="44.973291" lon="6.118453"><ele>1265.08</ele></trkpt>
            <trkpt lat="44.973516" lon="6.118464"><ele>1268.23</ele></trkpt>
            <trkpt lat="44.973611" lon="6.118582"><ele>1264.93</ele></trkpt>
            <trkpt lat="44.973779" lon="6.118791"><ele>1258.11</ele></trkpt>
            <trkpt lat="44.973948" lon="6.119001"><ele>1250.36</ele></trkpt>
            <trkpt lat="44.974083" lon="6.119034"><ele>1249.59</ele></trkpt>
            <trkpt lat="44.974305" lon="6.119088"><ele>1245.42</ele></trkpt>
            <trkpt lat="44.974709" lon="6.119116"><ele>1244.01</ele></trkpt>
            <trkpt lat="44.974842" lon="6.119188"><ele>1240.41</ele></trkpt>
            <trkpt lat="44.975157" lon="6.119209"><ele>1240.07</ele></trkpt>
            <trkpt lat="44.97525" lon="6.119089"><ele>1244.03</ele></trkpt>
            <trkpt lat="44.97561" lon="6.119114"><ele>1246</ele></trkpt>
            <trkpt lat="44.976271" lon="6.119539"><ele>1225.49</ele></trkpt>
            <trkpt lat="44.977167" lon="6.119664"><ele>1209.7</ele></trkpt>
            <trkpt lat="44.978132" lon="6.119082"><ele>1205.36</ele></trkpt>
            <trkpt lat="44.978211" lon="6.119405"><ele>1186.92</ele></trkpt>
            <trkpt lat="44.978394" lon="6.119607"><ele>1165.22</ele></trkpt>
            <trkpt lat="44.978573" lon="6.119619"><ele>1154.83</ele></trkpt>
            <trkpt lat="44.978607" lon="6.119938"><ele>1135.45</ele></trkpt>
            <trkpt lat="44.979057" lon="6.11997"><ele>1110.68</ele></trkpt>
            <trkpt lat="44.979142" lon="6.120102"><ele>1100.25</ele></trkpt>
            <trkpt lat="44.979497" lon="6.120253"><ele>1078.21</ele></trkpt>
            <trkpt lat="44.979536" lon="6.120446"><ele>1068.47</ele></trkpt>
            <trkpt lat="44.980154" lon="6.120806"><ele>1030.38</ele></trkpt>
            <trkpt lat="44.980378" lon="6.12082"><ele>1023.78</ele></trkpt>
            <trkpt lat="44.981894" lon="6.119959"><ele>981.46</ele></trkpt>
            <trkpt lat="44.982433" lon="6.119995"><ele>963.7</ele></trkpt>
            <trkpt lat="44.982644" lon="6.120003"><ele>958.76</ele></trkpt>
            <trkpt lat="44.982644" lon="6.120003"><ele>958.76</ele></trkpt>
            <trkpt lat="44.982696" lon="6.120048"><ele>957.81</ele></trkpt>
            <trkpt lat="44.982723" lon="6.12007"><ele>956.97</ele></trkpt>
            <trkpt lat="44.982723" lon="6.12007"><ele>956.97</ele></trkpt>
            <trkpt lat="44.982763" lon="6.120104"><ele>956.22</ele></trkpt>
            <trkpt lat="44.982806" lon="6.120134"><ele>955.6</ele></trkpt>
            <trkpt lat="44.982871" lon="6.120156"><ele>954.86</ele></trkpt>
            <trkpt lat="44.982965" lon="6.120166"><ele>952.82</ele></trkpt>
            <trkpt lat="44.983216" lon="6.120183"><ele>949.28</ele></trkpt>
            <trkpt lat="44.983376" lon="6.120209"><ele>947.31</ele></trkpt>
            <trkpt lat="44.983376" lon="6.120209"><ele>947.31</ele></trkpt>
            <trkpt lat="44.983551" lon="6.12028"><ele>945.76</ele></trkpt>
            <trkpt lat="44.98357" lon="6.120292"><ele>945.31</ele></trkpt>
            <trkpt lat="44.983613" lon="6.120335"><ele>944.86</ele></trkpt>
            <trkpt lat="44.983721" lon="6.120388"><ele>944.06</ele></trkpt>
            <trkpt lat="44.983861" lon="6.120425"><ele>942.92</ele></trkpt>
            <trkpt lat="44.983933" lon="6.120463"><ele>942.11</ele></trkpt>
            <trkpt lat="44.983991" lon="6.120511"><ele>941.64</ele></trkpt>
            <trkpt lat="44.984042" lon="6.120568"><ele>940.88</ele></trkpt>
            <trkpt lat="44.984061" lon="6.120594"><ele>940.75</ele></trkpt>
            <trkpt lat="44.984201" lon="6.120795"><ele>939.45</ele></trkpt>
            <trkpt lat="44.984392" lon="6.121078"><ele>937.98</ele></trkpt>
            <trkpt lat="44.984417" lon="6.121133"><ele>937.96</ele></trkpt>
            <trkpt lat="44.984469" lon="6.121259"><ele>937.5</ele></trkpt>
            <trkpt lat="44.984489" lon="6.121335"><ele>937.52</ele></trkpt>
            <trkpt lat="44.984489" lon="6.121335"><ele>937.52</ele></trkpt>
            <trkpt lat="44.98451" lon="6.121387"><ele>937.22</ele></trkpt>
            <trkpt lat="44.984558" lon="6.121528"><ele>936.87</ele></trkpt>
            <trkpt lat="44.984575" lon="6.121581"><ele>936.92</ele></trkpt>
            <trkpt lat="44.984601" lon="6.121658"><ele>936.41</ele></trkpt>
            <trkpt lat="44.984615" lon="6.121649"><ele>936.41</ele></trkpt>
        </trkseg>
    </trk>
</gpx>
